d (h-1),qO2 (mmol g-1 h-1)
0.048943,1.504300
0.099836,2.689952
0.148693,3.830012
0.198595,5.382770
0.248444,6.155723
0.279991,6.793581
0.300307,6.653171
0.329710,5.639955
0.360030,3.158730
0.380318,2.605482
