d (h-1),yield X/S (g g-1)
0.053751,0.491763
0.104124,0.501853
0.153660,0.500888
0.204735,0.501988
0.254127,0.479595
0.283851,0.479430
0.303268,0.419874
0.331979,0.269021
0.362071,0.210097
0.382380,0.169892
