d (h-1),qGlucose (mmol g-1 h-1)
0.049797,0.603248
0.100610,1.160093
0.152439,1.670534
0.201220,2.227378
0.251524,2.993039
0.280488,3.236659
0.301829,4.106729
0.330793,8.805104
0.360518,9.640371
0.381098,12.529002
