d,mmol g-1 h-1
0.050063,1.066761
0.100134,2.383936
0.150825,3.751071
0.200588,5.093350
0.250657,6.360443
0.275367,6.455659
0.301022,7.176727
0.325479,9.125074
0.340012,9.723162
0.359779,9.769285
0.380516,11.242587
0.390693,10.789799
0.396223,9.837109
0.400839,9.285269
0.415352,9.232278
0.434816,9.478795
0.440987,9.277226
0.450282,10.277029
0.470676,10.623526
0.480251,10.671691
