d,qEtOH
0.100166,0.089087
0.151244,0.089087
0.200995,0.044543
0.252073,0.044543
0.281260,0.044543
0.300498,0.400891
0.331675,4.721604
0.351575,5.968820
0.362189,6.904232
0.381426,18.307350
