TODO:

* Figure 1: unbalanced metabolism during exponential growth cf. @Slavov2014,
* Figure 3: beautiful depiction of constant budding vs. variable growth phase.


Table II: dilution rate; biomass; RQ; budding index;
NOTE: table copied manually
Medium: NL10 with 9.2 g/L glucose
