20150427 - http://arohatgi.info/WebPlotDigitizer/app/?

strain: Saccharomyces cerevisiae LBGH-1022
reactor: Vol, 3.2 L; T, 30°C; Agit, 1000 rpm; Air, 1 vvm
media: glucose, 30 g; (NH4)2SO4, 9 g; (NH4)2HPO4, 2.88 g; Kcl, 1.32 g; MgSO4.7H20, 0.69 g; CaCl2.2H20, 0.42 g; CuSO4.5H20, 3.51 mg; FeCl3.6H20, 21.6 mg; ZnSO4.7H20, 13.5 mg; MnSO4.1H20, 15.8 mg; biotin, 45 ug; m-inositol, 90 mg; Ca-pantothenate, 45 mg; thiamine, 9 mg; pyridoxal-HCL, 2.25 mg; PPG 2000, 0.1 ml; sulfuric acid, 0.7 ml

Fig. 9

x - dilution rate /h
y - oscillation period h

1:4 - experiment with symbols "+"
5:19 - experiment with symbols: upward triangle
20:27 - experiment with symbols: circle with small line at the top
28:31 - experiment with symbols: diamond, which had an additional smaller peak (see Fig. 9 legend)


Dilution rates:
0.129783715139195
0.140606904812792
0.158648536479897
0.17564937646936
0.129821738330856
0.131877972891701
0.144744722728922
0.154539795122097
0.158676121932672
0.16278560884325
0.157400853906448
0.166646453902472
0.170526683333913
0.178506707489823
0.185447431073646
0.18852954625658
0.19958646672598
0.221183639589847
0.241226334912248
0.10998295169315
0.142451775161164
0.147608018171606
0.170500588986694
0.181593295989423
0.212980322377021
0.227118612476577
0.163562847613983
0.0847940783228045
0.103690113473133
0.119723971509943
0.125624648968901

Oscillation periods:
4.32224779192119
3.9073924043083
3.18113453251356
2.61132345558742
3.87813691331209
3.86131724264761
3.5776791439066
3.17123359162595
2.85893644411088
2.86012932855517
2.75406699040225
2.76545903684522
2.44437927760906
2.2376971365803
2.17004567753351
2.17094034086673
2.02610925827439
1.77113020830745
1.67244884265357
4.59516484171915
3.35930673532379
3.13438837335295
2.74916125312511
2.18634346125362
1.58587525410924
1.45064689129343
2.78198048639863
7.8012058073591
9.09551525152466
7.82005338157888
7.90014066095739
