Symbol;Value;Units;Description;Reference
R;8.314472;J mol-1 K-1;universal gas constant
Na;6.02214179e23;mol-1;Avogadro number, particles per mol
T0;298.15;K;standard temperature
P0;101325;Pa;standard pressure (atmospheric)
ppO2;0.2095;;atmospheric partial pressure, oxygen
ppCO2;0.000383;;atmospheric partial pressure, carbon dioxide
ppH2S;0;;atmospheric partial pressure, hydrogen sulfide
k.pyrex;1.154784;W m-1 K-1;heat transfer coefficient, Pyrex glass;Carwile1966
C_air;29.14;J mol-1 K-1;heat capacity of air at 303 K and 1 bar;https://www.engineeringtoolbox.com/air-specific-heat-capacity-d_705.html
MW_C;12.0107;g mol-1;molecular weight, carbon atom
MW_N;14.007;g mol-1;molecular weight, nitrogen atom
MW_CO2;44.01;g mol-1;molecular weight, carbon dioxide
MW_Glc;180.16;g mol-1;molecular weight, glucose
MW_Glc.H20;198.17;molecular weight, glucose monohydrate
MW_EtOH;46.07;g mol-1;molecular weight, ethanol
MW_Pyr;87.06;g mol-1;molecular weight, pyruvate
MW_Ace;59.04;g mol-1;molecular weight, acetate
MW_Aca;44.05;g mol-1;molecular weight, acetaldehyde
MW_Gly;92.09;g mol-1;molecular weight, glycerol
MW_urea;60.06;g mol-1;molecular weight, urea 


