x,exp1
21.9355,0.061458
22.0637,0.0259971
22.1135,0.0786942
22.5058,0.0336032
23.7872,0.0800694
25.3065,0.147008
26.4669,0.0934528
26.5894,0.185948
26.8362,0.162336
28.4773,0.124996
28.5207,0.20995
30.383,0.275875
30.4283,0.251152
31.9886,0.314873
22.3009,0.0496955
26.0342,0.138537
26.8878,0.106432
31.8554,0.275064
23.5567,0.0230388
24.2283,0.0930517
24.8118,0.0996079
25.0591,0.0738457
25.8822,0.0922728
26.0401,0.109505
31.5208,0.234144
