"x","ATP;mM","ADP;mM","AMP;mM","DO;-"
2.24719,38.3544,NA,NA,NA
2.99625,NA,NA,3.03797,NA
3.74532,NA,10.6329,NA,35
5.99251,NA,NA,NA,38.7333367040003
6.74157,NA,NA,NA,41.1333639502251
6.74157,NA,NA,NA,41.1333639502251
8.2397,NA,NA,3.03797,49.9333327715555
8.98876,9.49367,6.07595,NA,56.6000205048908
8.98876,9.49367,6.07595,NA,56.6000205048908
10.4869,NA,NA,NA,62.2000325831142
11.985,NA,NA,NA,68.0666784640011
13.4831,NA,NA,2.65823,NA
14.2322,NA,6.83544,NA,72.6000148871125
14.9813,8.35443,NA,NA,NA
16.4794,NA,NA,NA,74.7333661973364
20.9738,11.7722,9.49367,3.41772,NA
22.4719,NA,NA,NA,74.466662172444
26.2172,11.3924,NA,NA,NA
26.9663,NA,8.73418,1.89873,NA
30.7116,NA,NA,NA,73.3999865173321
32.2097,NA,NA,2.65823,NA
32.9588,14.4304,9.87342,NA,NA
38.2022,14.0506,7.97468,NA,NA
38.9513,NA,NA,1.89873,72.0666770595565
44.1948,17.8481,8.35443,2.65823,NA
47.191,NA,NA,NA,70.733367601781
50.1873,NA,NA,1.89873,NA
50.9363,29.2405,10.6329,NA,NA
53.1835,NA,NA,NA,69.666691946669
56.9288,34.1772,5.31646,1.89873,NA
57.6779,NA,NA,NA,68.0666784640011
60.6742,NA,NA,NA,65.6666933511136
61.4232,NA,NA,2.65823,NA
62.1723,NA,NA,NA,61.6666947555582
62.9213,65.3165,NA,NA,58.2000339875587
63.6704,NA,8.73418,NA,52.333317884443
63.6704,NA,8.73418,NA,52.333317884443
64.4195,NA,NA,NA,45.9333341760001
65.9176,NA,NA,NA,40.8666599253327
66.6667,NA,NA,NA,38.7333367040003
68.9139,48.2278,8.73418,1.89873,36.5999994382222
74.9064,40.6329,7.97468,1.89873,NA
75.6554,NA,NA,NA,36.3333375466671
80.1498,41.0127,NA,NA,NA
80.8989,NA,8.73418,NA,NA
81.6479,NA,NA,2.27848,NA
82.397,NA,NA,NA,35.266668913778
84.6442,NA,NA,NA,37.1333372657781
85.3933,NA,13.2911,NA,NA
86.1423,NA,NA,NA,45.6667003733365
86.8914,NA,NA,NA,52.6000219093354
87.6404,28.1013,NA,5.31646,57.9333299626663
89.1386,NA,NA,NA,63.5333420408897
90.6367,NA,NA,NA,69.3999879217766
92.1348,NA,NA,NA,72.6000148871125
92.8839,27.3418,21.2658,7.59494,NA
94.382,NA,NA,NA,74.466662172444
98.8764,25.0633,16.7089,NA,75
99.6255,NA,NA,5.31646,NA
104.12,NA,NA,NA,73.933324344888
104.869,27.7215,NA,4.17722,NA
105.618,NA,15.5696,NA,NA
110.861,29.2405,NA,3.03797,NA
111.61,NA,14.8101,NA,NA
112.36,NA,NA,NA,73.1333527146685
116.854,29.6203,15.1899,4.55696,NA
118.352,NA,NA,NA,72.3333108622201
122.846,NA,8.73418,2.27848,NA
123.596,25.443,NA,NA,NA
124.345,NA,NA,NA,71.266705429337
128.839,NA,14.0506,NA,NA
129.588,34.1772,NA,2.65823,70.200029774225
133.333,NA,NA,NA,68.3333122666647
134.831,31.1392,NA,NA,NA
135.581,NA,10.2532,2.27848,NA
137.079,NA,NA,NA,65.9333271537772
138.577,NA,NA,NA,63.5333420408897
139.326,NA,NA,NA,60.3333150755539
140.075,NA,NA,NA,53.1333597368914
140.824,NA,6.4557,1.89873,NA
141.573,NA,NA,NA,50.4666705991115
142.322,48.6076,NA,NA,45.1333625457805
143.071,NA,NA,NA,41.6667017777811
143.82,NA,NA,NA,38.7333367040003
145.318,NA,NA,NA,37.1333372657781
147.566,48.9873,NA,1.89873,NA
148.315,NA,9.11392,NA,NA
149.813,NA,NA,NA,36.3333375466671
152.809,NA,9.49367,NA,NA
153.558,45.5696,NA,NA,NA
154.307,NA,NA,2.27848,NA
155.056,NA,NA,NA,36.0666686328891
158.801,52.4051,9.87342,1.89873,NA
161.049,NA,NA,NA,35.7999997191111
162.547,NA,NA,NA,37.1333372657781
163.296,NA,NA,NA,47.7999814613316
164.045,NA,NA,NA,53.9333313671109
164.794,47.4684,NA,NA,NA
165.543,NA,20.5063,6.4557,59.5333434453343
166.292,NA,NA,NA,65.6666933511136
168.539,NA,NA,NA,70.4666635768886
169.288,NA,NA,NA,73.1333527146685
170.787,NA,19.3671,6.83544,NA
171.536,NA,NA,NA,75
172.285,33.038,NA,NA,NA
176.779,NA,12.9114,NA,NA
177.528,27.7215,NA,4.55696,74.466662172444
182.772,NA,NA,NA,73.6666905422244
183.521,44.4304,18.6076,4.55696,NA
188.764,NA,15.9494,3.41772,NA
189.513,35.6962,NA,NA,72.8666486897761
195.506,18.2278,9.11392,2.27848,72.0666770595565
195.506,18.2278,9.11392,2.27848,72.0666770595565
200.749,NA,NA,2.65823,71.266705429337
201.498,60.3797,15.1899,NA,NA
205.993,NA,NA,NA,70.4666635768886
206.742,NA,16.3291,2.65823,NA
208.989,NA,NA,NA,69.3999879217766
212.734,NA,15.1899,4.17722,67.5333406364451
213.483,37.5949,NA,NA,NA
215.73,NA,NA,NA,64.6000176960017
217.228,NA,NA,NA,57.6666961600028
217.978,NA,NA,NA,49.1333611413359
217.978,NA,NA,NA,49.1333611413359
218.727,47.8481,17.8481,NA,NA
219.476,NA,NA,3.79747,45.3999963484441
220.225,NA,NA,NA,42.1999693831083
220.974,NA,NA,NA,39.2666675093334
224.719,NA,NA,1.89873,37.6666680711112
225.468,56.2025,11.3924,NA,NA
229.213,NA,NA,NA,36.5999994382222
231.461,60,14.0506,2.65823,NA
233.708,NA,NA,NA,35.7999997191111
235.955,NA,12.1519,NA,NA
236.704,56.962,NA,1.89873,NA
238.202,NA,NA,NA,35.5333308053331
238.951,NA,NA,NA,37.6666680711112
240.449,NA,NA,NA,47.7999814613316
