x,ATP;mM,ADP;mM,AMP;mM,DO;-
2.24719,38.3544,,,
2.99625,,,3.03797,
3.74532,,10.6329,,2.27848
5.99251,,,,7.59494
6.74157,,,,11.0127
6.74157,,,,11.0127
8.2397,,,3.03797,23.5443
8.98876,9.49367,6.07595,,33.038
8.98876,9.49367,6.07595,,33.038
10.4869,,,,41.0127
11.985,,,,49.3671
13.4831,,,2.65823,
14.2322,,6.83544,,55.8228
14.9813,8.35443,,,
16.4794,,,,58.8608
20.9738,11.7722,9.49367,3.41772,
22.4719,,,,58.481
26.2172,11.3924,,,
26.9663,,8.73418,1.89873,
30.7116,,,,56.962
32.2097,,,2.65823,
32.9588,14.4304,9.87342,,
38.2022,14.0506,7.97468,,
38.9513,,,1.89873,55.0633
44.1948,17.8481,8.35443,2.65823,
47.191,,,,53.1646
50.1873,,,1.89873,
50.9363,29.2405,10.6329,,
53.1835,,,,51.6456
56.9288,34.1772,5.31646,1.89873,
57.6779,,,,49.3671
60.6742,,,,45.9494
61.4232,,,2.65823,
62.1723,,,,40.2532
62.9213,65.3165,,,35.3165
63.6704,,8.73418,,26.962
63.6704,,8.73418,,26.962
64.4195,,,,17.8481
65.9176,,,,10.6329
66.6667,,,,7.59494
68.9139,48.2278,8.73418,1.89873,4.55696
74.9064,40.6329,7.97468,1.89873,
75.6554,,,,4.17722
80.1498,41.0127,,,
80.8989,,8.73418,,
81.6479,,,2.27848,
82.397,,,,2.65823
84.6442,,,,5.31646
85.3933,,13.2911,,
86.1423,,,,17.4684
86.8914,,,,27.3418
87.6404,28.1013,,5.31646,34.9367
89.1386,,,,42.9114
90.6367,,,,51.2658
92.1348,,,,55.8228
92.8839,27.3418,21.2658,7.59494,
94.382,,,,58.481
98.8764,25.0633,16.7089,,59.2405
99.6255,,,5.31646,
104.12,,,,57.7215
104.869,27.7215,,4.17722,
105.618,,15.5696,,
110.861,29.2405,,3.03797,
111.61,,14.8101,,
112.36,,,,56.5823
116.854,29.6203,15.1899,4.55696,
118.352,,,,55.443
122.846,,8.73418,2.27848,
123.596,25.443,,,
124.345,,,,53.9241
128.839,,14.0506,,
129.588,34.1772,,2.65823,52.4051
133.333,,,,49.7468
134.831,31.1392,,,
135.581,,10.2532,2.27848,
137.079,,,,46.3291
138.577,,,,42.9114
139.326,,,,38.3544
140.075,,,,28.1013
140.824,,6.4557,1.89873,
141.573,,,,24.3038
142.322,48.6076,,,16.7089
143.071,,,,11.7722
143.82,,,,7.59494
145.318,,,,5.31646
147.566,48.9873,,1.89873,
148.315,,9.11392,,
149.813,,,,4.17722
152.809,,9.49367,,
153.558,45.5696,,,
154.307,,,2.27848,
155.056,,,,3.79747
158.801,52.4051,9.87342,1.89873,
161.049,,,,3.41772
162.547,,,,5.31646
163.296,,,,20.5063
164.045,,,,29.2405
164.794,47.4684,,,
165.543,,20.5063,6.4557,37.2152
166.292,,,,45.9494
168.539,,,,52.7848
169.288,,,,56.5823
170.787,,19.3671,6.83544,
171.536,,,,59.2405
172.285,33.038,,,
176.779,,12.9114,,
177.528,27.7215,,4.55696,58.481
182.772,,,,57.3418
183.521,44.4304,18.6076,4.55696,
188.764,,15.9494,3.41772,
189.513,35.6962,,,56.2025
195.506,18.2278,9.11392,2.27848,55.0633
195.506,18.2278,9.11392,2.27848,55.0633
200.749,,,2.65823,53.9241
201.498,60.3797,15.1899,,
205.993,,,,52.7848
206.742,,16.3291,2.65823,
208.989,,,,51.2658
212.734,,15.1899,4.17722,48.6076
213.483,37.5949,,,
215.73,,,,44.4304
217.228,,,,34.557
217.978,,,,22.4051
217.978,,,,22.4051
218.727,47.8481,17.8481,,
219.476,,,3.79747,17.0886
220.225,,,,12.5316
220.974,,,,8.35443
224.719,,,1.89873,6.07595
225.468,56.2025,11.3924,,
229.213,,,,4.55696
231.461,60,14.0506,2.65823,
233.708,,,,3.41772
235.955,,12.1519,,
236.704,56.962,,1.89873,
238.202,,,,3.03797
238.951,,,,6.07595
240.449,,,,20.5063
