"D","DW","qGlc","qEtOH","qO2","qNS"
0.052,1.79078,1.70226,0.188752,4.28916,0.145567
0.075,1.70216,2.53668,0.284129,4.53356,0.247457
0.109,1.79836,3.33028,2.34656,4.73301,0.34382
0.111,1.67892,3.84165,2.34569,4.99145,0.34382
0.133,1.65836,4.01771,3.95621,6.24481,0.445914
0.134,1.60721,4.78613,3.95621,6.91491,0.445914
0.147,1.63893,4.45162,4.15497,NA,0.458972
0.181,1.32759,7.07655,5.40896,NA,0.686456
0.201,1.2733,7.61874,7.17149,8.2084,0.826746
0.245,1.07886,10.6061,8.87752,7.91395,1.23558
0.279,1.09018,9.67795,12.0002,9.19454,1.4071
0.327,0.759398,14.7521,12.3922,12.7041,1.48017
0.367,0.430036,NA,NA,NA,NA
