D,"DW, g/L","rO2, %","rCO2, %",RQ,"qO2, mmol/(g*h)","qCO2, mmol/(g*h)","dGlc, mM","qGlc, mmol/(g*h)","EtOH, mM","qEtOH, mmol/(g*h)","Ace, mM","qAce, mmol/(g*h)","Gly, mM","qGly, mmol/(g*h)",qATP,"dGln, mM","qGln, mmol/(g*h)","Gln, mM",
0.048,3.255,0.416,0.367,0.8822115385,4.9884655724,4.4008818872,51.0426753352,0.7527030464,0.0673319063,0.0009929129,0.0023474178,3.4616299950239E-005,,,4.9894931016,18.8221443707,0.277561576,19.0378556293,37.86
0.073,3.8,0.2395362319,0.2945652174,1.229731365,2.788495325,3.4291001622,51.8216355264,0.995520893,0.3283831345,0.0063084128,0.0082159624,0.000157833,,,2.7949615709,22.5658934878,0.4335026907,15.2941065122,37.86
0.109,4.2865,0.37112,0.4201,1.1319788748,3.8299564471,4.3354297893,53.4981298691,1.3603863655,1.224921476,0.0311481257,0.0082159624,0.000208921,,,3.8613134938,25.4182737675,0.6463529314,12.4417262325,37.86
0.133,4.26,0.484875,0.50075,1.032740397,5.0350350418,5.199884088,51.8190958438,1.6178262317,1.1362355793,0.0354740216,0.1784037559,0.0055698825,0.3444842128,0.0107550235,5.0653239223,28.0306106481,0.8751340883,9.8293893519,37.86
0.147,4.565,0.589125,0.58075,0.9857840017,5.7088545052,5.6276974393,53.5003343148,1.7227928027,1.5722745715,0.0506296521,0.0798122066,0.0025700754,0.345319604,0.0111198208,5.750934412,27.3866235754,0.881891274,10.4733764246,37.86
0.181,3.935,0.5771780822,0.6526164384,1.1307020459,6.4885461514,7.336612408,50.6050201436,2.3277023243,5.1039269376,0.2347676685,0.1607981221,0.007396305,1.6312896769,0.0750351795,6.6556749454,22.878714067,1.0523627055,14.981285933,37.86
0.2,3.695,0.6111428571,0.7207755102,1.1793895679,7.3166217105,8.6291473176,53.4521871551,2.8932171667,34.4019503507,1.8620812098,0.2758215962,0.0149294504,0.1698874561,0.0091955321,9.1844368386,22.5733333333,1.2218313036,15.2866666667,37.86
0.2,3.695,0.6111428571,0.7207755102,1.1793895679,7.3166217105,8.6291473176,50.5597631618,2.7366583579,34.4019503507,1.8620812098,0.2136150235,0.0115623829,0.1698874561,0.0091955321,9.1810697711,27.3764761037,1.4818119677,10.4835238963,37.86
0.245,3.591,0.5511777778,0.8139777778,1.4767971616,6.7898252704,10.0271946873,51.4916302498,3.5130741886,49.1647192722,3.354318079,0.25,0.0170565302,0.1498380678,0.0102228701,10.1509770095,23.9252454747,1.6323266893,13.9347545253,37.86
0.281,3.199,0.4994285714,0.8853571429,1.7727402746,6.9062365213,12.2429636273,51.3326973916,4.5090615714,83.0955257965,7.2991068299,0.3802816901,0.0334039246,0.1665458914,0.0113627801,14.2273844958,20.2121115538,1.775430868,17.6478884462,37.86
0.324,2.38,0.4168181818,0.8933333333,2.143220647,7.7473290442,16.604235567,49.7720170275,6.7756863516,94.366025172,12.8464672923,0.5845070423,0.0795715469,0.656085123,0.0576304844,20.6157373991,23.0628837304,3.1396530793,14.8242097136,37.887093444
0.364,1.6,0.2768181818,0.626969697,2.2649151615,7.653444427,17.3344023202,37.1884421473,8.4603705885,62.7716744636,14.2805559405,0.4037558685,0.0918544601,0.8716160475,0.1186569745,,29.8940787727,6.4501746729,7.9659212273,37.86
