"D","DW","qGlc","qEtOH","qO2","qNS"
0.049,2.75903,1.04389,-0.0628963,4.73935,0.202347
0.07,2.85732,1.47603,0.184371,7.2234,0.286471
0.107,2.61352,2.26851,1.13457,9.28603,0.568688
0.127,2.25356,3.06678,2.2408,12.2564,0.764734
0.145,2.19957,3.64641,2.94323,15.1906,0.794534
0.172,1.99121,4.58895,4.40099,9.64824,1.02488
0.201,1.81651,5.82389,6.1614,8.46989,1.32855
0.24,1.41931,7.3843,8.82814,9.14922,2.26003
0.271,1.07447,8.54517,10.9921,8.60365,3.10207
0.316,0.574506,11.1296,13.9101,17.9364,3.73372
0.36,0.31231,NA,NA,NA,NA
