x,Curve1
4.672,2.72464
4.67228,2.57971
4.7493,2.60386
5.34389,3.98068
5.34408,3.88406
5.47889,3.90821
6.30608,4.56039
6.49813,4.8744
6.49836,4.75362
6.63183,5.47826
7.61375,5.81643
7.63311,5.76812
8.0934,6.85507
9.57451,8.08696
9.59368,8.13527
13.2868,11.2512
13.3636,11.3478
13.4793,11.3237
13.5365,11.6135
