Compound,G,N,P,S,L,U
CaCl2.2H2O,0.1,0.1,0.1,0.1,0.1,0.1
NaCl,0.1,0.1,0.1,0.1,0.1,0.1
MgSO4.7H2O,0.5,0.5,0.5,,0.5,0.5
MgCl.6H2O,,,,0.412,,
KH2(PO4)2,1,1,,1,1,1
KCl,,,1,,,
(NH4)2SO4,5,,5,,5,5
NH4Cl,,,,4.05,,
Glucose,0.8,5,5,5,5,5
Leucine,,,,,0.015,
Uracil,,,,,,0.005
Vitamins,and,,,,,
metals,Saldanha2004,Saldanha2004,Saldanha2004,Saldanha2004,Saldanha2004,Saldanha2004
