"x","BI..","DOT.."
0.154707,NA,99.5133981558359
0.265343,NA,99.3343672712991
0.376356,NA,99.5595417692493
0.509321,NA,99.5602809117983
0.642328,NA,99.6059493621446
0.908215,NA,99.5625247373933
1.10766,NA,99.5636598491649
1.30728,NA,99.7444066003332
1.48444,NA,99.6106745948683
1.63956,NA,99.6115457271581
1.77261,NA,99.7021170873535
2.14905,NA,99.3898557583673
2.28197,NA,99.3456919910671
2.68087,NA,99.3479358166621
2.76947,NA,99.3035080698802
2.88036,NA,99.3939474403347
2.99104,NA,99.2598458635953
3.00829,0.774364,NA
3.07968,NA,99.2603474246107
3.21264,NA,99.2610865671597
3.30108,NA,99.0370207830329
3.38993,NA,99.2620896891904
3.4784,NA,99.0829268149128
3.65565,NA,99.0390270270944
3.74421,NA,98.9496963704632
3.81082,NA,99.0848010692334
3.89942,NA,99.0403733224514
4.01001,NA,98.8164395280655
4.14293,NA,98.7722757607653
4.27586,NA,98.7281119934651
4.36433,NA,98.5489755171357
4.43073,NA,98.4595128707637
4.54145,NA,98.3703142038735
4.69666,NA,98.4610175538098
4.8073,NA,98.2819866692731
4.91814,NA,98.3275231298785
5.02434,0.750974,NA
5.05086,NA,98.0587920174362
5.18374,NA,97.9697253402868
5.2723,NA,97.8803946836557
5.36086,NA,97.7910640270246
5.4937,NA,97.6570944400261
5.56005,NA,97.522728883805
5.6709,NA,97.5682653444103
5.8259,NA,97.4344013492046
5.93645,NA,97.1655382470214
6.02036,0.701847,NA
6.06929,NA,97.0315422620747
6.18001,NA,96.9423435951845
6.33505,NA,96.853408907776
6.46772,NA,96.5397748854845
6.50961,0.771706,NA
6.55624,NA,96.4055149210561
6.68904,NA,96.2266160262603
6.79963,NA,96.0026822318744
6.88811,NA,95.823545755545
7.01764,0.703761,NA
7.02086,NA,95.5997175529518
7.19765,NA,95.061780165
7.28621,NA,94.9724495083689
7.39667,NA,94.6137805864874
7.50723,NA,94.3449438822524
7.52771,0.719181,NA
7.63994,NA,94.0762127698101
7.7285,NA,93.986882113179
7.76964,0.644374,NA
7.7724,NA,93.5380114023765
7.90524,NA,93.404041815378
8.01571,NA,93.0453728934965
8.01759,0.81456,NA
8.0819,NA,92.7313429019824
8.14813,NA,92.4622686162138
8.28042,0.688717,NA
8.28059,NA,91.9240672487802
8.3911,NA,91.6103012367479
8.47937,NA,91.2065974152763
8.52729,0.814668,NA
8.58967,NA,90.6682640581019
8.65594,NA,90.4440926821824
8.74429,NA,90.1301946804092
8.77031,0.784096,NA
8.78819,NA,89.6813503675549
8.87663,NA,89.4572845834281
8.92057,NA,89.0533167824748
9.00888,NA,88.6945158708525
9.01299,0.739913,NA
9.07507,NA,88.3805122772865
9.1635,NA,88.1564464931598
9.20795,NA,88.2914456001372
9.38528,NA,88.3373516320171
9.45172,NA,88.2928182934424
9.51548,0.447392,NA
9.58456,NA,88.1588223084957
9.71744,NA,88.0697556313464
9.75523,0.284116,NA
9.76063,0.503588,NA
9.7843,NA,88.4743305851077
9.82904,NA,88.9236764589774
9.87378,NA,89.3730487307952
9.94056,NA,89.6878178648583
9.9853,NA,90.1371637387279
9.99966,0.311389,NA
10.0011,0.370936,NA
10.0741,NA,90.3622326448854
10.1403,NA,90.0482290513195
10.1842,NA,89.599358340517
10.2503,NA,89.1506196194554
10.2644,0.263809,NA
10.3165,NA,88.7916867180922
10.3604,NA,88.3428160072897
10.4043,NA,87.8939452964872
10.4482,NA,87.4450745856848
10.5087,0.282575,NA
10.5363,NA,86.9515649445149
10.6469,NA,86.6377989324826
10.7129,NA,86.189060211421
10.7569,NA,85.7850924104677
10.7738,0.252008,NA
10.8455,NA,85.7855939714831
10.9117,NA,85.4266610701198
11.0665,NA,85.1580619474184
11.1107,NA,84.9786878895554
11.2214,NA,84.8445599148678
11.2614,0.252111,NA
11.2877,NA,84.6652914487975
11.3762,NA,84.5310578823172
11.4868,NA,84.3520269977805
11.5051,0.252163,NA
11.5533,NA,84.352396569055
11.6417,NA,84.03852496523
11.7081,NA,84.0388945365044
11.7712,0.259025,NA
11.7966,NA,83.8597316622268
11.9075,NA,83.9052681228322
11.974,NA,83.950567001904
12.0402,NA,83.6365634083381
12.1731,NA,83.5923732430897
12.2172,NA,83.3231669675802
12.279,0.182574,NA
12.3057,NA,83.1889334011
12.4386,NA,83.1896725436489
12.5494,NA,83.1004738767587
12.66,NA,82.921442992222
12.7264,NA,82.7870774360008
12.7677,0.226912,NA
12.7926,NA,82.5629060600814
12.859,NA,82.4734434137094
12.9476,NA,82.3392098472291
13.0137,NA,82.0252062536632
13.1465,NA,81.7564751412208
13.2351,NA,81.8018796120854
13.3236,NA,81.5778402259068
13.412,NA,81.3986773516292
13.4785,NA,81.3990469229037
13.6112,NA,81.0854129006122
13.7441,NA,80.9963462234629
13.8546,NA,80.6825802114305
13.9873,NA,80.4138490989882
14.0538,NA,80.4142186702627
14.1423,NA,80.3249144115797
14.2529,NA,80.0560513093966
14.2529,NA,80.0560513093966
14.3856,NA,79.7424172871051
14.4741,NA,79.6081837206248
14.4741,NA,79.6081837206248
14.629,NA,79.3844875077725
14.7174,NA,79.1155188137967
14.7174,NA,79.1155188137967
14.8281,NA,79.0263201469064
14.9387,NA,78.8023863525206
14.9387,NA,78.8023863525206
15.0494,NA,78.7131876856303
15.1379,NA,78.5340248113527
15.1379,NA,78.5340248113527
15.2705,NA,78.1754878792121
15.359,NA,77.9963514028827
15.359,NA,77.9963514028827
15.4717,NA,NA
15.5355,0.133928,NA
15.698,NA,NA
15.7347,NA,76.9205822187718
15.8233,NA,76.8761544719898
15.9118,NA,76.6520886878631
15.9782,NA,76.5626524394392
15.9907,NA,NA
16.2613,NA,NA
16.3324,NA,NA
