D,"P, h","t2, h",Mutant,Function,,,,,%,%,t2,P,relative mutation rate
0.0925,3.9,1.28,WT,,,,,,,,1.29,3.9,1
0.0925,4.1,1.29,CLN1,"G1 cyclin, activate G1/S transition",,,,,101,105,1.31,4.1,1.26055
0.0925,4,1.29,MBP1,"Transcription factor, promote G1/S transition",,,,,101,102,,,
0.0925,4,1.3,MEC3,DNA damage checkpoint,,,,,102,102,,,
0.0925,3.7,1.32,FAR1,Cdk inhibitor,,,,,103,95,,,
0.0925,3.7,1.33,YHP1,Homeobox transcriptional repressor,,,,,104,95,,,
0.0925,3.9,1.33,SML1,Ribonucleotide reductase inhibitor,,,,,104,100,,,
0.0925,4.2,1.33,CLB3,"G2 cyclin, activate G2/M transition",,,,,104,108,,,
0.0925,3.5,1.34,CLN3,"G1 cyclin, activate G1/S transition",,,,,105,90,,,
0.0925,3.9,1.37,BCK2,"PKC component, regulate G1/S transition",,,,,107,100,,,
0.0925,3.6,1.43,TEL1,Protein kinase required for DNA damage checkpoint,,,,,112,92,,,
0.0925,3.6,1.45,SWI5,Transcription factor for early G1,,,,,113,92,,,
0.0925,4,1.5,CLB5,S-phase cyclin required for DNA replication,,,,,117,102,,,
0.0925,2.1,1.53,CDH1,Activator for the anaphase-promoting complex,,,,,119,54,1.53,2.1,2.55165
0.0925,4.2,1.54,ACE2,Transcription factor for early G1 in daughter cells,,,,,120,108,,,
0.0925,1.9,1.54,BUB1,Protein kinase required for spindle checkpoint,,,,,120,49,1.55,1.9,2.15655
0.0925,2.4,1.55,BEM2,RhoGAP required for bud emergence,,,,,121,62,1.57,2.4,6.77448
0.0925,4.3,1.62,SWI4,"Transcription factor, promote G1/S transition",,,,,127,110,,,
0.0925,1.2,1.68,SIC1,"Cdk inhibitor, prevent premature S phase entry",,,,,131,31,1.68,1.2,14.3083
0.0925,3.1,1.77,DCC1,Sister chromatid cohesion and telomere maintenance,,,,,138,79,,,
0.0925,2.5,1.8,LTE1,Ras GEF required for mitotic exit,,,,,141,64,,,
0.0925,2.3,1.84,CNM67,Spindle pole body component required for nuclear migration,,,,,144,59,,,
0.0925,2.1,1.86,SWI6,"Transcription factor, promote G1/S transition",,,,,145,54,1.86,2.1,8.26287
0.0925,2.3,1.91,POL32,DNA pol delta subunit required for error-prone replication,,,,,149,59,,,
0.0925,2.6,2.41,CTF4,Chromatin protein required for sister chromatid cohesion,,,,,188,67,,,
0.0925,2.9,2.5,DOC1,Processivity factor for the anaphase-promoting complex,,,,,195,74,,,
