x,G0/G1;%,S/G2;%,DO;%
8.51867,,,66.724
8.58506,,,62.4303
8.60166,,,57.6665
8.63485,,,52.9006
8.65145,,,48.1367
8.71784,,,43.8431
8.80083,,,40.0237
8.85062,,,44.3035
8.90041,,,48.5833
8.93361,,,53.3412
8.95021,,,58.1012
8.9668,,,66.6706
8.9834,,,62.8591
9.0166,,,67.6171
9.08299,68.5615,,71.4187
9.09959,,,73.3215
9.13278,,31.889,
9.16598,,,75.2183
9.19917,,,76.643
9.23237,68.0676,,
9.29876,,31.8692,
9.36515,69.9565,,
9.38174,,,78.0498
9.39834,,31.3811,
9.43154,65.6629,,
9.46473,,35.1828,77.5637
9.53112,62.3177,,77.5558
9.53112,62.3177,,77.5558
9.54772,,38.5062,
9.61411,,,77.0697
9.63071,60.4011,39.9249,
9.6971,,,76.5837
9.74689,59.9111,40.3873,
9.78008,,,76.0976
9.86307,,,75.1353
9.89627,59.4171,40.3695,
9.92946,,,74.6513
10.0124,,,74.6414
10.0456,59.3993,,
10.0622,,40.3497,
10.0954,,,75.1077
10.1452,61.7684,,
10.1784,64.6216,34.6216,73.6692
10.2448,,,73.1851
10.2614,,36.9927,
10.2946,63.1792,,
10.3112,,36.0344,
10.3444,,,71.2685
10.3776,,,70.7884
10.4108,66.4987,,
10.4274,,33.1634,
10.4772,,,67.9194
10.527,,,62.6754
10.5602,65.0524,34.5762,61.2428
10.5768,,,56.479
10.61,,,51.7131
10.6432,,,46.9472
10.6763,67.8957,32.1814,
10.7095,,,42.6536
10.7593,,32.1715,
10.7925,,,42.1676
10.8423,73.114,25.9712,
10.8589,,,46.4454
10.8921,,,51.2033
10.9087,65.4871,,55.9632
10.9253,,34.0565,57.866
10.9253,,34.0565,57.866
10.9419,,,65.0069
11.0083,,26.9038,70.2371
11.0249,72.1399,,
11.0747,67.3721,,73.0863
11.0913,,33.0844,
11.1411,,,74.9832
11.1909,,,76.882
11.2241,66.8781,,
11.2407,,32.5904,
11.3237,,,78.771
11.3568,65.4337,,
11.3734,,34.0032,
11.4398,63.9953,,
11.4896,64.4655,35.4179,77.7989
11.639,63.4954,35.8763,76.8287
11.639,63.4954,35.8763,76.8287
11.6722,,39.2057,
11.722,60.6283,,
11.7884,,,75.3823
11.8216,,40.6165,
11.8548,,35.8506,
11.9212,,38.6999,
11.9378,61.0788,,74.4122
11.971,61.5511,,
12.0041,62.9757,,
12.0539,62.0174,,
12.1037,59.6305,,73.9162
12.1369,,39.1504,
12.1535,62.0055,,
12.2365,,35.8052,
12.2531,64.8508,,72.9461
12.3195,,32.462,
12.3693,68.1703,,
12.4025,,,71.0235
12.4357,,32.9243,
12.4855,,,67.2041
12.5519,67.6724,,63.8629
12.5851,,31.0018,59.097
12.5851,,31.0018,59.097
12.6017,69.095,,
12.6183,,,54.3312
12.6349,,,49.5673
12.6846,67.1804,,45.2756
12.7178,,31.9384,
12.7344,,,40.5078
12.751,70.5058,,
12.8008,,28.5951,
12.8174,,,39.5455
12.8506,,30.9702,
12.8672,,,43.8253
12.917,,,48.5813
12.9336,,28.1031,52.865
12.9502,,,57.625
12.9834,70.4782,,62.3829
13.0166,,29.0456,
13.0332,,,68.5675
13.0996,78.0834,,72.3691
13.1162,,21.4147,
13.1494,73.3156,,
13.166,,,74.7421
13.1826,,29.9783,
13.2988,,,77.5835
13.4315,,,77.5677
