x,qHeat W
-0.987805,3.60057
-0.804878,3.59681
-0.640244,3.84033
-0.47561,3.9604
-0.310976,4.20393
-0.146341,4.57091
-0.054878,5.55668
0.0365854,6.54246
0.20122,6.53907
0.365854,6.41223
0.530488,6.53229
0.713415,6.40507
0.823171,5.53862
0.914634,4.54908
1.06098,4.29916
1.20732,4.04923
1.39024,3.92201
1.57317,3.79479
1.7378,3.66795
1.92073,3.54073
2.10366,3.4135
2.26829,3.53357
2.43293,3.28327
2.59756,3.77371
2.78049,3.52304
2.94512,3.89002
3.12805,4.25662
3.2561,4.99473
3.34756,6.10396
3.5122,5.97712
3.67683,6.22064
3.84146,6.46417
4.02439,6.58386
4.18902,6.33356
4.33537,5.58981
4.40854,4.47719
4.55488,4.22727
4.7378,4.10005
4.90244,3.84974
5.08537,3.72252
5.25,3.59568
5.39634,3.59267
5.56098,3.21891
