x,non,activated,repressed
-34.717,57.562,56.981,58.152
-33.9183,57.278,57.795,58.104
-33.1195,56.211,58.029,58.364
-32.3208,54.305,58.346,58.017
-31.522,53.42,58.661,58.005
-30.7233,54.055,59.56,58.406
-29.9245,55.409,61.311,58.695
-29.1257,54.45,62.51,58.585
-28.327,53.991,60.789,57.183
-27.5282,53.597,57.937,54.324
-26.7295,52.307,55.543,50.834
-25.9307,50.643,53.82,48.965
-25.132,48.236,52.557,48.603
-24.3332,47.97,51.532,47.958
-23.5345,49.124,51.396,47.906
-22.7357,51.439,52.647,49.135
-21.937,54.086,54.883,51.927
-21.1382,56.957,57.804,54.038
-20.3395,59.368,61.603,56.485
-19.5407,60.41,62.717,58.405
-18.742,59.292,62.019,58.404
-17.9432,56.825,61.393,57.377
-17.1444,53.18,58.174,54.562
-16.3457,50.182,53.743,51.08
-15.5469,49.223,51.337,49.601
-14.7482,52.338,52.437,51.41
-13.9494,59.16,59.756,58.212
-13.1507,66.079,65.81,65.256
-12.3519,70.344,71.37,69.204
-11.5532,73.812,75.633,73.073
-10.7544,77.881,78.593,76.773
-9.9557,79.738,80.999,78.295
-9.1569,77.07,79.384,75.013
-8.3582,72.316,75.569,69.192
-7.5594,67.51,71.304,64.487
-6.7607,63.201,68.418,61.579
-5.9619,58.889,64.303,56.473
-5.1631,52.426,59.304,49.498
-4.3644,47.066,54.456,43.422
-3.5656,43.936,51.851,40.111
-2.7669,43.86,51.595,39.525
-1.9681,45.981,52.55,40.113
-1.1694,47.939,55.182,45.045
-0.3706,51.09,57.791,50.286
0.4281,53.887,60.018,55.453
1.2269,56.805,60.901,60.232
2.0256,60.375,61.107,63.244
2.8244,61.078,60.548,64.573
3.6231,62.157,60.509,64.173
4.4219,62.112,60.377,63.028
5.2206,61.013,60.281,61.431
6.0194,61.052,58.417,59.273
6.8182,59.001,57.495,57.492
7.6169,57.872,56.257,55.309
8.4157,56.872,54.966,53.594
9.2144,56.884,54.112,52.179
