x,CPR,DO_axis,DO
32.521,,,5.26102
33.5294,4.13559,,
38.5714,,,5.26102
39.5798,4.18983,,
41.5966,,,5.13898
42.605,,,5.00339
43.6134,4.27119,,
47.6471,,,4.98983
49.6639,4.3661,,
52.6891,,,4.92203
54.7059,4.52881,,
56.7227,,,4.8
59.7479,4.69153,,4.67797
62.7731,,,4.58305
65.7983,4.89492,,4.44746
67.8151,,,4.32542
68.8235,5.13898,,
70.8403,5.30169,,
72.8571,5.45085,,
73.8655,5.5322,,
75.8824,5.5322,,
76.8908,,,4.12203
78.9076,5.46441,,
82.9412,5.41017,,
86.9748,5.39661,,
88.9916,,,4.05424
93.0252,5.39661,,
100.084,5.39661,,
102.101,,,4.13559
105.126,5.35593,,
107.143,,,4.16271
110.168,5.26102,,4.27119
112.185,,,4.40678
113.193,5.17966,,4.54237
115.21,5.05763,,4.66441
115.21,5.05763,,4.66441
116.218,,,4.75932
117.227,4.93559,,
119.244,4.75932,,
121.261,,,4.94915
122.269,4.55593,,
125.294,,,4.98983
126.303,4.40678,,
128.319,,,5.07119
129.328,,,5.20678
131.345,4.27119,,
132.353,,,5.32881
135.378,4.17627,,5.32881
138.403,,,5.26102
141.429,4.08136,,5.30169
142.437,,,5.43729
145.462,,,5.45085
146.471,4.05424,,
148.487,,,5.31525
150.504,4.05424,,5.24746
152.521,4.12203,,5.38305
152.521,4.12203,,5.38305
154.538,,,5.30169
155.546,4.16271,,
158.571,,,5.20678
160.588,4.18983,,
162.605,,,5.09831
163.613,,,4.97627
165.63,4.25763,,
168.655,4.35254,,4.93559
171.681,4.46102,,
172.689,,,4.88136
173.697,,,4.77288
174.706,4.55593,,
175.714,,,4.69153
178.739,,,4.55593
179.748,4.70508,,
180.756,,,4.3661
182.773,4.85424,,4.39322
184.79,,,4.25763
185.798,5.03051,,4.16271
186.807,,,4.29831
187.815,5.2339,,
188.824,,,4.32542
189.832,5.41017,,
190.84,5.49153,,4.18983
192.857,,,4.13559
193.866,5.54576,,
197.899,5.47797,,
198.908,,,4.08136
201.933,5.38305,,
203.95,,,4.0678
206.975,,,3.98644
207.983,5.35593,,
213.025,,,4.0678
216.05,5.34237,,
219.076,,,4.13559
222.101,5.34237,,
225.126,,,4.23051
226.134,5.27458,,
227.143,,,4.28475
228.151,,,4.33898
229.16,5.20678,,4.47458
231.176,5.13898,,4.61017
231.176,5.13898,,4.61017
232.185,5.04407,,4.74576
233.193,4.92203,,
234.202,,,4.8678
236.218,4.69153,,
238.235,4.54237,,5.01695
241.261,4.44746,,5.13898
241.261,4.44746,,5.13898
244.286,4.29831,,
245.294,,,5.24746
249.328,,,5.27458
251.345,4.17627,,
252.353,,,5.31525
253.361,,,5.45085
254.37,4.09492,,
256.387,,,5.51864
258.403,4.04068,,5.38305
260.42,4.0678,,5.26102
260.42,4.0678,,5.26102
261.429,,,5.39661
263.445,4.10847,,
264.454,,,5.5322
265.462,,,5.39661
266.471,4.12203,,5.26102
268.487,4.0678,,
270.504,,,5.2339
272.521,4.08136,,
275.546,,,5.17966
276.555,4.14915,,
278.571,,,5.08475
279.58,4.24407,,
282.605,,,4.96271
284.622,4.40678,,4.82712
287.647,,,4.7322
288.655,4.54237,,
292.689,,,4.61017
293.697,4.7322,,
295.714,,,4.46102
297.731,4.93559,,
298.739,,,4.33898
300.756,5.13898,,4.20339
302.773,5.31525,,
303.782,,,4.13559
305.798,5.43729,,
307.815,5.49153,,
308.824,,,4.14915
310.84,5.42373,,
312.857,,,4.09492
313.866,5.38305,,
314.874,,,3.97288
317.899,,,4.01356
318.908,5.34237,,
320.924,,,4.14915
325.966,,,4.14915
326.975,5.34237,,
331.008,,,4.16271
333.025,5.30169,,
337.059,,,4.24407
340.084,5.26102,,4.3661
343.109,,,4.40678
345.126,5.19322,,4.54237
346.134,,,4.67797
347.143,5.08475,,
349.16,4.78644,,
350.168,,,4.82712
351.176,4.70508,,4.94915
352.185,4.62373,,
353.193,,,5.08475
355.21,,,5.05763
356.218,4.42034,,
357.227,,,5.12542
362.269,4.29831,,5.2339
366.303,4.18983,,
368.319,,,5.24746
369.328,,,5.38305
371.345,4.12203,,5.43729
374.37,,,5.34237
375.378,,,5.28814
377.395,,,5.42373
378.403,,,5.36949
379.412,4.0678,,
380.42,,,5.2339
383.445,,,5.24746
387.479,4.10847,,5.19322
389.496,,4.13559,
390.504,,4.8,
392.521,,5.46441,
