x,dO2%
50.0474,54.0779
50.0948,54.2285
50.1659,54.2363
50.243,54.3901
50.32,54.2531
50.3911,54.1154
50.4622,53.9777
50.5215,53.5478
50.5985,53.1198
50.6696,52.5458
50.723,51.8243
50.8,51.2509
50.8474,50.5288
50.9126,49.8086
50.9541,48.2132
51.0074,46.1826
51.0252,45.0209
51.043,43.2774
51.0785,41.0995
51.0844,39.6456
51.1022,37.9021
51.1081,35.2845
51.1141,32.9579
51.12,31.0676
51.1319,28.8871
51.1378,27.4332
51.1496,25.98
51.1674,24.8183
51.1793,24.3832
51.2089,24.8228
51.2385,25.1169
51.2504,23.9546
51.2681,23.2293
51.2859,22.5039
51.3037,21.7786
51.3156,20.7617
51.3274,19.7448
51.3452,18.4377
51.363,17.1305
51.3807,15.9688
51.3926,14.8065
51.4104,13.6448
51.4222,12.7733
51.4519,12.0493
51.4696,11.1785
51.4756,10.5973
51.517,10.1655
51.5585,9.5882
51.6,9.01091
51.6533,8.43491
51.7126,8.15046
51.76,7.86473
51.8074,7.57899
51.8726,7.14974
51.9141,7.15426
51.9674,6.86917
52.0326,6.73083
52.0919,6.59184
52.163,6.89051
52.2163,7.47814
52.2341,8.49826
52.2578,10.1008
52.2696,11.5567
52.2815,12.8671
52.2874,15.0495
52.2933,17.9593
52.3111,20.2885
52.323,24.7989
52.323,24.7989
52.3348,32.2183
52.3407,33.9644
52.3526,35.8566
52.3585,37.4573
52.3763,38.7683
52.4296,39.2105
52.4356,40.8112
52.4711,42.5605
52.483,44.0163
52.5185,45.9111
52.5541,47.6604
52.6015,48.6838
52.6607,49.4175
52.7319,49.5707
52.8089,49.4337
52.8681,49.1493
52.9511,49.0128
53.04,48.8771
53.1348,49.0329
53.1881,49.4751
53.277,49.6302
53.36,50.0756
53.4607,50.3775
53.5556,51.1152
53.6326,51.4145
53.7333,51.8618
53.8222,52.5988
53.8933,52.752
53.9881,53.1987
54.0593,53.7883
54.1363,54.3785
54.2015,54.5311
54.2904,54.8317
54.3556,54.6933
54.4089,54.9901
54.4622,54.8504
54.48,54.8524
