x,DW;g/L
-0.0100503,4.14203
0.321608,4.14203
0.562814,4.18841
0.819095,4.13043
1.0603,3.97971
1.31658,3.93913
1.55779,3.95072
1.78392,3.97971
2.1608,4.03188
2.64322,4.11884
3.17085,4.15362
3.66834,4.11884
