x,DW,EtOH
0.271915,6.4726,
0.272766,,3.73044
0.274894,7.19761,
0.275532,,3.46088
0.276809,7.3315,
0.27766,,3.89041
0.279362,,4.07813
0.279787,5.7178,
0.280426,,3.35204
0.281277,7.57224,
0.284681,,4.0767
0.285532,,3.18937
0.286809,7.89333,
0.287021,5.63521,
0.290426,,2.94612
0.290638,8.32241,
0.291277,5.55342,
0.291702,,4.07481
0.29234,,2.64991
0.292766,5.41861,
0.29383,8.72478,
0.295745,5.25652,
0.29617,,4.28866
0.297021,,2.62177
0.3,5.12097,
0.302979,8.69544,4.36748
0.307447,5.01144,
0.310638,,4.3923
0.31383,5.00972,
0.319149,,4.39001
0.322128,4.87308,
0.326809,,4.44172
0.330851,4.73633,
0.336596,,4.41221
0.336809,4.70785,
