x,DW,EtOH
0.270851,,3.73095
0.272128,6.47255,
0.272979,,3.73038
0.273404,6.36468,
0.27383,6.71402,3.75704
0.27383,6.71402,3.75704
0.274681,7.03638,3.51487
0.274681,7.03638,3.51487
0.275319,7.30502,
0.275532,6.82109,
0.275745,6.33717,
0.275957,,3.78334
0.27617,,3.43383
0.276596,5.98747,
0.277447,7.35821,3.75606
0.277872,6.33659,
0.278298,,3.94401
0.278936,6.2019,
0.279362,7.41146,
0.279574,,3.70173
0.28,6.33602,
0.280213,7.51876,3.35209
0.281064,6.20133,
0.281277,7.41095,
0.281489,5.66358,
0.281702,,4.0775
0.28234,,3.27088
0.282766,,3.217
0.283191,6.20075,
0.283404,7.49102,
0.283617,5.66301,
0.28383,,4.05005
0.284894,7.75944,3.18954
0.284894,7.75944,3.18954
0.285319,8.72706,
0.285532,7.4098,
0.285745,,2.65168
0.285957,,4.07636
0.286596,7.89339,
0.286809,,3.13527
0.287021,,3.26962
0.287447,8.72649,
0.28766,5.60816,
0.287872,,4.07584
0.288936,,3.05405
0.289574,8.69904,
0.289787,7.40866,
0.29,,2.65054
0.290851,8.26859,2.89224
0.290851,8.26859,2.89224
0.291277,5.49966,
0.291702,8.67159,
0.291915,,4.12852
0.29234,,2.70367
0.292766,8.61754,
0.292979,5.28415,4.34329
0.293191,,2.83785
0.293191,,2.83785
0.293404,5.44532,
0.294043,,4.18171
0.294894,8.67073,
0.295106,8.42873,4.31583
0.295319,5.41792,2.78352
0.295319,5.41792,2.78352
0.29617,,4.18114
0.296809,8.69709,
0.297021,,4.26155
0.297234,8.42816,2.75612
0.297447,,2.62165
0.29766,5.14848,
0.298511,,4.18051
0.298936,8.69652,
0.299362,8.42759,2.75555
0.299787,5.12102,4.28769
0.299787,5.12102,4.28769
0.300213,,4.36822
0.300638,,4.15305
0.301064,8.69595,
0.301489,5.38938,
0.301915,5.09357,
0.30234,,4.39453
0.302766,,4.1256
0.303191,5.03946,
0.303617,5.38881,
0.304468,,4.39396
0.304681,,4.0982
0.305106,5.14648,
0.305745,5.38824,
0.306596,,4.39339
0.306809,,4.07075
0.307234,5.1459,
0.307872,5.38767,
0.308723,,4.4197
0.308936,,4.0433
0.309362,5.01092,
0.309787,5.36027,
0.310851,,4.41913
0.311277,5.01041,
0.311489,5.14476,
0.312766,,4.39173
0.313404,4.98296,
0.314894,,4.41804
0.315532,4.9555,
0.317021,,4.39059
0.317447,4.92811,
0.319149,,4.39001
0.319574,4.90065,
0.321277,,4.38944
0.321489,4.87326,
0.323404,,4.38887
0.323617,4.8458,
0.325532,,4.41518
0.325745,4.81835,
0.32766,,4.41461
0.327872,4.79089,
0.328085,,4.44137
0.329787,4.7635,
0.330213,,4.41392
0.331915,4.73604,
0.33234,,4.41335
0.334043,4.70859,
0.334468,,4.41278
0.33617,4.70802,
0.336596,,4.38532
