x,Curve1
7.10543e-15,77.375
3.796,79.468
8.225,78.87
11.388,77.674
16.134,76.478
19.93,72.741
24.042,61.08
28.155,50.017
32.583,52.11
36.38,52.857
40.492,70.199
43.656,78.571
48.084,79.767
51.88,78.571
55.993,77.824
59.473,76.628
64.218,72.591
67.698,61.977
72.127,50.914
76.239,51.661
79.719,53.007
83.831,71.844
87.944,79.767
91.74,80.814
96.169,80.664
99.649,80.216
104.077,79.169
107.873,77.525
111.986,74.535
115.782,66.611
119.895,51.512
123.691,51.512
127.803,52.708
131.916,71.545
136.344,80.963
139.824,81.561
144.569,81.412
147.733,81.113
151.845,80.515
155.641,79.319
160.07,77.824
163.55,75.731
167.979,71.545
171.775,59.435
176.204,51.512
180.316,53.754
183.796,69.9
188.225,80.515
