"x","DW.g.L","DNA...DW","RNA...DW"
0.0369631,NA,NA,3.71449824424575
0.0396524,NA,0.429525097963531,NA
0.0399987,1.95877,NA,NA
0.0466718,NA,0.445305551601013,NA
0.0492014,NA,NA,3.57261434320316
0.0492438,NA,0.395991633983882,NA
0.0514329,2.00966,NA,NA
0.0580195,NA,NA,4.17038914152655
0.0580484,NA,0.443443137656488,NA
0.0609896,1.94452,NA,NA
0.0799069,NA,0.422125507076412,NA
0.0808014,NA,NA,4.39728322745633
0.0828366,1.91268,NA,NA
0.116722,NA,NA,4.71098983434866
0.22004,1.71631,NA,NA
0.221946,NA,NA,6.46225972089407
0.224318,NA,0.413814735173424,NA
0.352064,NA,0.373963081951864,NA
0.353446,NA,NA,8.3696319375209
0.353769,1.54458,NA,NA
0.514567,NA,NA,NA
0.517078,NA,NA,NA
0.520471,NA,NA,NA
0.523866,NA,NA,NA
0.529008,NA,NA,NA
0.534152,NA,NA,NA
0.53929,NA,NA,NA
0.54706,NA,NA,NA
