x,DW g/L,Glc_axis,Glc_axis2,Glc ug/mL,DNA_axis,DNA % DW,RNA % DW
-0.0140239,,,13.951,,,,
-0.00404575,,7.95278,,,,,
-0.00172525,,,11.8602,,,,
0.00563984,,6.00098,,,,,
0.0161956,,4.01445,,,,,
0.0166396,,,9.875,,,,
0.0232833,,1.99243,,,,,
0.0372416,,,,0.948356,,,
0.0378722,,,,,,4.22754,
0.0386819,,,,,,,5.03
0.0391661,10.3324,,,,,,
0.0473989,,,,,,4.47338,
0.0490485,,,,,,,5.65972
0.0493764,,,,1.12489,,,
0.051311,10.3694,,,,,,
0.0589434,,,,0.812606,,,
0.0595589,,,,,,4.30109,
0.0620837,,,,,,,5.38292
0.0625906,10.3714,,,,,,
0.078075,,,,0.22292,,,
0.080282,,,,,,,5.70005
0.0803804,,,,,,4.3396,
0.0852358,9.18929,,,,,,
0.100614,,,,0.505921,,,
0.100975,7.51761,,,,,,
0.101207,,,,,,4.30835,
0.103676,,,,,,,6.15762
0.166007,,,,,,,8.12198
0.167213,,,,3.44777,,,
0.169778,,,,,,3.97147,
0.172262,5.61144,,,,,,
0.180916,,,,5.9269,,,
0.184107,,,,,,,9.79955
0.185419,,,,,,3.66025,
0.351163,,,,,,3.41009,
0.351393,,,,,,,12.2357
0.351484,,,,10.9799,,,
0.352092,2.57304,,,,,,
0.524788,,,,,14.1846,,
0.529267,,,,,12.2318,,
0.534617,,,,,10.2444,,
0.537361,,,,,8.2914,,
0.540116,,,,,6.19886,,
0.545463,,,,,4.2463,,
0.553416,,,,,2.25932,,
