"x","DW.g.L","Glc.ug.mL","DNA...DW","RNA...DW"
-0.0140239,NA,NA,NA,NA
-0.00404575,NA,NA,NA,NA
-0.00172525,NA,NA,NA,NA
0.00563984,NA,NA,NA,NA
0.0161956,NA,NA,NA,NA
0.0166396,NA,NA,NA,NA
0.0232833,NA,NA,NA,NA
0.0372416,NA,18.6302195047348,NA,NA
0.0378722,NA,NA,0.397617979177188,NA
0.0386819,NA,NA,NA,4.78158044350108
0.0391661,10.3324,NA,NA,NA
0.0473989,NA,NA,0.422292068380526,NA
0.0490485,NA,NA,NA,5.41360808152281
0.0493764,NA,22.1842099579956,NA,NA
0.051311,10.3694,NA,NA,NA
0.0589434,NA,15.8972943796589,NA,NA
0.0595589,NA,NA,0.404999931914356,NA
0.0620837,NA,NA,NA,5.13579373513963
0.0625906,10.3714,NA,NA,NA
0.078075,NA,4.02570922087066,NA,NA
0.080282,NA,NA,NA,5.45408587267033
0.0803804,NA,NA,0.408865044081703,NA
0.0852358,9.18929,NA,NA,NA
0.100614,NA,9.72309812195061,NA,NA
0.100975,7.51761,NA,NA,NA
0.101207,NA,NA,0.405728592374885,NA
0.103676,NA,NA,NA,5.91333265906682
0.166007,NA,NA,NA,7.88489114700488
0.167213,NA,68.9485349269554,NA,NA
0.169778,NA,NA,0.371917141143106,NA
0.172262,5.61144,NA,NA,NA
0.180916,NA,118.858491945956,NA,NA
0.184107,NA,NA,NA,9.56860867974341
0.185419,NA,NA,0.34068109313683,NA
0.351163,NA,NA,0.315573420849541,NA
0.351393,NA,NA,NA,12.0136860639247
0.351484,NA,1520.58571593865,NA,NA
0.352092,2.57304,NA,NA,NA
0.524788,NA,NA,NA,NA
0.529267,NA,NA,NA,NA
0.534617,NA,NA,NA,NA
0.537361,NA,NA,NA,NA
0.540116,NA,NA,NA,NA
0.545463,NA,NA,NA,NA
0.553416,NA,NA,NA,NA
