"x","DW.g.L","Glc.ug.mL","DNA...DW","RNA...DW"
-0.00764691,NA,NA,NA,NA
-0.000585898,NA,NA,NA,NA
0.00652804,NA,NA,NA,NA
0.0136155,NA,NA,NA,NA
0.0198185,NA,NA,NA,NA
0.0330049,NA,NA,NA,NA
0.0389452,NA,31.3853105755638,NA,NA
0.0399374,0.204469,NA,NA,NA
0.0503041,NA,NA,0.470937280963472,NA
0.050529,NA,NA,NA,5.30260967301299
0.0508559,0.234696,NA,NA,NA
0.0520145,NA,31.248244452921,NA,NA
0.0714455,NA,-1.13636834387535,NA,NA
0.0716893,0.286486,NA,NA,NA
0.101341,0.345102,NA,NA,NA
0.1015,NA,NA,NA,6.42770019841915
0.10175,NA,NA,0.478716777124128,NA
0.102825,NA,-0.766047931347074,NA,NA
0.14995,NA,NA,NA,7.79844420393456
0.151362,0.367878,NA,NA,NA
0.152112,NA,NA,0.430704333394246,NA
0.152713,NA,10.6036675689978,NA,NA
0.200749,0.406281,NA,NA,NA
0.202717,NA,NA,NA,9.062189968564
0.203479,NA,NA,0.41754676775748,NA
0.203526,NA,24.7617917666815,NA,NA
0.250018,NA,NA,NA,9.7005591726468
0.251896,NA,48.0396507479644,NA,NA
0.251906,0.446396,NA,NA,NA
0.252191,NA,NA,0.394055424645674,NA
0.301775,NA,NA,0.370515811650762,NA
0.302917,NA,NA,NA,11.3132961921359
0.30385,NA,214.695124184014,NA,NA
0.304759,0.312086,NA,NA,NA
0.526297,NA,NA,NA,NA
0.534216,NA,NA,NA,NA
0.537805,NA,NA,NA,NA
0.54315,NA,NA,NA,NA
0.549393,NA,NA,NA,NA
0.559094,NA,NA,NA,NA
