x,DW g/L,DNA_axis,DNA % DW,RNA % DW
0.0369631,,,,1.58429
0.0396524,,,1.64229,
0.0399987,1.95877,,,
0.0466718,,,1.65805,
0.0492014,,,,1.57012
0.0492438,,,1.6088,
0.0514329,2.00966,,,
0.0580195,,,,1.62982
0.0580484,,,1.65619,
0.0609896,1.94452,,,
0.0799069,,,1.6349,
0.0808014,,,,1.65248
0.0828366,1.91268,,,
0.116722,,,,1.68381
0.22004,1.71631,,,
0.221946,,,,1.85871
0.224318,,,1.6266,
0.352064,,,1.5868,
0.353446,,,,2.0492
0.353769,1.54458,,,
0.514567,,2.1146,,
0.517078,,2.00908,,
0.520471,,1.91059,,
0.523866,,1.81386,,
0.529008,,1.71359,,
0.534152,,1.61508,,
0.53929,,1.5113,,
0.54706,,1.41277,,
