D,"Y [mg DW/mg Glucose]","qCO2 [mMol/(g DW*h]","qO2 [mMol/(g DW*h]",RQ
0,,0.62,0.62,1
0.05,0.483,2.06,2.06,1
0.1,0.493,3.53,3.53,1
0.15,0.497,4.96,4.96,1
0.2,0.5,6.43,6.43,1
0.24,0.497,7.6,7.6,1
0.275,0.322,10.9,7.32,1.48907103825137
0.3,0.264,13.8,6.52,2.11656441717791
0.325,0.228,16.8,5.68,2.95774647887324
0.35,0.199,20,4.88,4.0983606557377
0.375,0.18,23.2,4.12,5.63106796116505
0.4,0.168,26.3,3.4,7.73529411764706
0.425,0.154,29.5,2.91,10.1374570446735
0.45,0.145,32.7,2.45,13.3469387755102
