x,qCO2;mmol/g/h
8.54084,4.60534
8.60265,4.60615
8.66446,4.65936
8.71744,4.78232
8.77925,4.87047
8.80574,4.95815
8.83223,5.0109
8.86755,5.08123
8.90287,5.16903
8.94702,5.23948
9,5.22271
9.04415,5.22329
9.09713,5.22398
9.15011,5.27708
9.19426,5.39992
9.21192,5.45256
9.22958,5.54013
9.23841,5.62758
9.24724,5.90717
9.24724,5.90717
9.2649,6.27421
9.2649,6.27421
9.28256,6.76353
9.30022,7.04323
9.30022,7.04323
9.31788,7.58495
9.32671,7.95188
9.33554,8.02186
9.36203,7.77767
9.37086,7.62058
9.37086,7.62058
9.37969,7.37615
9.38852,7.16666
9.39735,6.99211
9.41501,6.76526
9.45033,6.66092
9.50331,6.60921
9.55629,6.62737
9.60927,6.71541
9.65342,6.80332
9.67991,6.87354
9.72406,6.96145
9.75938,6.94445
9.77704,6.92721
9.78587,6.78759
9.7947,6.6305
9.81236,6.35125
9.82119,6.08936
9.83885,5.79265
9.85651,5.56581
9.87417,5.39136
9.90066,5.14717
9.92715,4.95538
9.9713,4.76382
10.0066,4.62454
10.0508,4.52032
10.1214,4.45137
10.1921,4.3999
10.2627,4.33095
10.3333,4.29694
10.4305,4.31568
10.5188,4.35177
10.5982,4.40522
10.6424,4.42326
10.6954,4.42396
10.7483,4.44212
10.8013,4.47775
10.8278,4.49556
10.872,4.47867
10.9249,4.49683
10.9956,4.51523
11.0397,4.55074
11.0927,4.58637
11.1457,4.65693
11.1898,4.72738
11.234,4.78036
11.287,4.79852
11.3664,4.83449
11.4283,4.87024
11.4989,4.9061
11.5695,4.95943
11.649,5.03034
11.6932,5.10078
11.7373,5.20617
11.7638,5.32878
11.7991,5.48645
11.8256,5.644
11.8521,5.88889
11.8874,6.16883
11.9051,6.34373
11.9227,6.50117
11.9316,6.58862
11.9404,6.74594
11.9492,6.8858
11.9581,7.04312
11.9757,7.16562
11.9934,7.53266
12.0022,7.75985
12.011,8.07438
12.011,8.07438
12.0287,8.23182
12.0375,8.10966
12.0464,7.6731
12.0464,7.6731
12.0552,7.49854
12.064,7.28905
12.0905,7.04485
12.1082,6.90535
12.1347,6.74849
12.1523,6.67885
12.17,6.62668
12.2053,6.73195
12.2494,6.81986
12.2671,6.90743
12.3201,6.99546
12.3554,7.04832
12.3907,7.11866
12.426,7.15405
12.4702,7.10223
12.4967,7.01524
12.5232,6.84092
12.532,6.70129
12.5408,6.47433
12.5585,6.23002
12.5673,6.07293
12.5762,5.88091
12.6026,5.70658
12.6115,5.5495
12.6468,5.42769
12.6733,5.2883
12.6998,5.11397
12.7528,4.97493
12.8057,4.83588
12.8499,4.73166
12.9029,4.64502
12.9647,4.55849
