x,EtOH;mg/L
-146.25,7.03125
-81.5625,7.80834
-64.6875,10.925
-49.6875,10.8585
-33.75,9.72407
-15.9375,9.64511
1.13687e-13,103.191
11.25,76.5459
20.625,55.2277
32.8125,17.9397
48.75,10.4222
75,6.05053
105,4.85372
133.125,4.72906
191.25,4.47141
265.313,6.27078
