x,qCO2;mmol/g/h,qO2;mmol/g/h
-0.55205,4.30399,3.99045
10.489,,5.50204
11.5931,8.92256,
14.3533,10.4905,
14.9054,,5.55941
18.7697,,6.55735
19.3218,8.86618,
22.082,7.69776,6.81415
33.6751,8.01224,
34.2271,,7.75576
43.612,,7.69951
44.164,7.15799,
53.5489,7.24427,7.01624
59.0694,,6.04757
59.6215,6.84571,
66.7981,6.27622,5.90568
78.9432,4.5385,
79.4953,,4.28201
86.1199,,4.51058
87.776,4.88126,
98.265,4.39755,3.91299
112.618,3.82865,
113.17,,3.57216
133.596,3.4028,3.26029
155.678,,3.06256
156.23,3.46165,
176.104,3.63429,3.52028
194.322,3.63578,
195.426,,3.1228
215.852,3.72304,
216.404,,3.32404
234.621,,3.52505
235.174,3.92414,
243.454,4.72291,4.23835
247.871,6.97506,
248.975,,5.09391
253.943,10.5955,5.26534
258.36,7.77401,6.23482
263.88,7.71745,6.34928
273.817,7.63275,
274.369,,6.72068
283.202,7.60501,7.06344
297.003,7.03606,7.37811
303.076,7.12207,
303.628,,7.52116
313.013,6.86635,6.29628
323.502,6.43965,5.78407
333.438,6.21243,
333.991,,5.52839
344.479,5.89979,5.47223
