x,BI;%
-8.52651e-14,4.98812
11.6114,10.4513
18.7994,13.0641
22.6698,11.639
34.2812,22.3278
43.6809,31.5914
53.6335,39.905
58.6098,45.6057
66.9036,51.7815
78.515,50.5938
86.8088,51.0689
97.8673,49.6437
113.349,40.1425
133.807,28.0285
155.371,16.152
174.724,6.4133
194.629,2.85036
214.534,2.61283
235.545,4.038
244.392,5.93824
249.368,8.55107
254.344,6.65083
259.321,9.26366
264.297,9.97625
274.803,12.8266
283.649,27.0784
296.919,39.4299
303.555,45.1306
313.507,48.9311
324.013,49.4062
334.518,52.9691
345.024,50.1188
