time.glycogen,mmol.g.cell.glycogen,time.fermentor.glycogen,dot.fermentor.glycogen,DCW.glycogen,acetate.T.glycogen,time.ms.glycogen.2,o2.ms.glycogen.2,time.ms.glycogen,O2.glycogen,our.glycogen,cer.glycogen,delay.glycogen,time.ethanol,ethanol,time.fermentor.ethanol,dot.fermentor.ethanol,DCW.ethanol
595,0.1882,595,65.6252,7.7,1.3083,588.5,16.6898,588.5,16.6898,2.018,3.5546,-8,579,,579,25.9796,7.66
600,0.1897,595.5,65.701,,1.2283,589,16.8272,589,16.8272,1.9259,3.5533,,583,,579.5,26.3642,
604,0.1915,596,65.7538,,1.1198,589.5,16.9579,589.5,16.9579,1.8399,3.5421,,587,3.9724,580,26.6638,
608,0.1797,596.5,65.7441,,1.0398,590,17.0711,590,17.0711,1.7641,3.5387,,591,3.9635,580.5,26.9535,
612,0.2034,597,65.7315,,0.977,590.5,17.0722,590.5,17.0722,1.7653,3.5293,,595,4.0592,581,27.2654,
616,0.2108,597.5,65.6491,,1.0798,591,17.0748,591,17.0748,1.7671,3.5123,,599,4.1505,581.5,27.5024,
620,0.23,598,65.5654,,1.2969,591.5,17.1836,591.5,17.1836,1.6965,3.4971,,603,4.2484,582,27.8252,
624,0.2359,598.5,65.4508,,1.4454,592,17.2695,592,17.2695,1.6395,3.4903,,607,4.3641,582.5,27.8996,
628,0.247,599,65.3699,,1.4797,592.5,17.3377,592.5,17.3377,1.5949,3.4817,,611,4.3775,583,28.0653,
632,0.2211,599.5,65.2662,,1.4226,593,17.423,593,17.423,1.5385,3.4735,,615,4.2684,583.5,28.3099,
636,0.2089,600,65.1588,,1.3712,593.5,17.4609,593.5,17.4609,1.5135,3.4696,,619,4.0592,584,28.4375,
640,0.1923,600.5,65.2171,,1.2569,594,17.4912,594,17.4912,1.4947,3.4609,,623,3.9746,584.5,28.5226,
644,0.1912,601,65.0226,,1.1941,594.5,17.5231,594.5,17.5231,1.4751,3.4502,,627,3.9613,585,28.7514,
648,0.1878,601.5,64.9359,,1.0741,595,17.5416,595,17.5416,1.4635,3.4454,,631,4.0214,585.5,29.19,
652,0.1919,602,64.774,,0.9998,595.5,17.5652,595.5,17.5652,1.4464,3.45,,635,4.1237,586,30.0245,
656,0.2174,602.5,64.4797,,1.0684,596,17.5805,596,17.5805,1.4366,3.4469,,639,4.2239,586.5,32.1973,
660,0.2326,603,64.2629,,1.2398,596.5,17.5874,596.5,17.5874,1.4338,3.4377,,643,4.2818,587,35.9106,
664,0.2444,603.5,63.9934,,1.3826,597,17.5942,597,17.5942,1.4309,3.4298,,647,4.3841,587.5,40.1751,
668,0.2514,604,63.5866,,1.5026,597.5,17.6035,597.5,17.6035,1.4264,3.4208,,651,4.4064,588,44.2782,
672,0.2222,604.5,63.1721,,1.3826,598,17.6055,598,17.6055,1.4261,3.4159,,655,4.2617,588.5,48.1072,
678,0.2071,605,62.6847,,1.3369,598.5,17.6015,598.5,17.6015,1.4304,3.409,,659,4.1749,589,51.4554,
682,0.1838,605.5,62.1884,,1.2455,599,17.601,599,17.601,1.4328,3.3994,,663,4.0726,589.5,54.3446,
686,0.184,606,61.6711,,1.1312,599.5,17.6061,599.5,17.6061,1.4308,3.3923,,667,3.9702,590,56.8807,
690,0.1841,606.5,61.0084,,1.0398,600,17.5891,600,17.5891,1.4429,3.3895,,671,4.0659,590.5,59.0457,
694,0.2023,607,60.1691,,1.0055,600.5,17.5764,600.5,17.5764,1.4536,3.3805,,675,4.1772,591,60.7581,
698,0.2256,607.5,59.2635,,1.1312,601,17.561,601,17.561,1.467,3.3668,,679,4.2573,591.5,62.2348,
702,0.2344,608,58.1691,,1.3255,601.5,17.5225,601.5,17.5225,1.4935,3.3656,,683,4.3441,592,63.4448,
706,0.2359,608.5,56.9263,,1.4626,602,17.4752,602,17.4752,1.5253,3.3681,,687,4.4086,592.5,64.3614,
710,0.2455,609,55.4894,,1.4226,602.5,17.4493,602.5,17.4493,1.5454,3.3563,,691,4.4242,593,65.1254,
714,0.2375,609.5,53.7208,,1.3826,603,17.3848,603,17.3848,1.5911,3.3475,,695,4.2595,593.5,65.7758,
718,0.2037,610,51.6092,,1.2855,603.5,17.3031,603.5,17.3031,1.6471,3.3448,,699,4.1482,594,66.2643,
722,0.1986,610.5,49.0892,,1.2455,604,17.2195,604,17.2195,1.7043,3.3421,,703,3.9457,594.5,66.5667,
726,0.2019,611,46.1749,,1.0969,604.5,17.1134,604.5,17.1134,1.7763,3.3407,,707,3.9791,595,66.7554,
730,0.1819,611.5,42.6448,,1.0569,605,17.0352,605,17.0352,1.8295,3.3389,,711,4.0726,595.5,66.9814,
734,0.1949,612,38.7091,,1.0055,605.5,16.9301,605.5,16.9301,1.9005,3.3371,,715,4.1705,596,67.1609,
738,0.2115,612.5,35.0698,,1.0798,606,16.8078,606,16.8078,1.9825,3.3375,,719,4.2573,596.5,67.2435,
742,0.2341,613,31.8427,,1.274,606.5,16.6566,606.5,16.6566,2.0833,3.3393,,723,4.2884,597,67.2681,
746,0.2422,613.5,28.9588,,1.514,607,16.4829,607,16.4829,2.1995,3.3372,,727,4.4175,597.5,67.2687,
750,0.2363,614,26.7681,,1.4969,607.5,16.2995,607.5,16.2995,2.3223,3.3322,,731,4.422,598,67.2582,
754,0.2289,614.5,25.0836,,1.4226,608,16.0362,608,16.0362,2.4966,3.3295,,735,4.2996,598.5,67.1747,
,,615,24.0521,,,608.5,15.8372,608.5,15.8372,2.6267,3.3321,,,,599,67.0531,
,,615.5,23.4234,,,609,15.6637,609,15.6637,2.7395,3.335,,,,599.5,66.9557,
,,616,22.7091,,,609.5,15.4033,609.5,15.4033,2.9078,3.3401,,,,600,66.8892,
,,616.5,22.298,,,610,15.1793,610,15.1793,3.0516,3.3455,,,,600.5,66.8466,
,,617,22.1699,,,610.5,14.9716,610.5,14.9716,3.1844,3.35,,,,601,66.7494,
,,617.5,22.0603,,,611,14.7413,611,14.7413,3.3294,3.3637,,,,601.5,66.6195,
,,618,21.9734,,,611.5,14.5157,611.5,14.5157,3.4708,3.3772,,,,602,66.4704,
,,618.5,21.7422,,,612,14.32,612,14.32,3.5931,3.3879,,,,602.5,66.2775,
,,619,21.8034,,,612.5,14.1703,612.5,14.1703,3.687,3.391,,,,603,66.0652,
,,619.5,21.9164,,,613,14.0135,613,14.0135,3.7849,3.396,,,,603.5,65.8894,
,,620,21.9153,,,613.5,13.8824,613.5,13.8824,3.8669,3.3965,,,,604,65.6619,
,,620.5,22.0915,,,614,13.7838,614,13.7838,3.9294,3.3919,,,,604.5,65.4247,
,,621,22.1864,,,614.5,13.6824,614.5,13.6824,3.9924,3.3932,,,,605,65.0674,
,,621.5,22.3178,,,615,13.5894,615,13.5894,4.0495,3.398,,,,605.5,64.6416,
,,622,22.4268,,,615.5,13.4981,615.5,13.4981,4.1053,3.4045,,,,606,64.2324,
,,622.5,22.4198,,,616,13.4299,616,13.4299,4.1476,3.4044,,,,606.5,63.7428,
,,623,22.4235,,,616.5,13.3663,616.5,13.3663,4.1869,3.4052,,,,607,63.1584,
,,623.5,22.237,,,617,13.3024,617,13.3024,4.2261,3.4074,,,,607.5,62.3744,
,,624,22.0849,,,617.5,13.2552,617.5,13.2552,4.2556,3.4048,,,,608,61.5213,
,,624.5,22.4555,,,618,13.2458,618,13.2458,4.263,3.3938,,,,608.5,60.5389,
,,625,23.6068,,,618.5,13.2515,618.5,13.2515,4.2619,3.3789,,,,609,59.3564,
,,625.5,26.616,,,619,13.2388,619,13.2388,4.2708,3.3711,,,,609.5,57.8552,
,,626,31.6098,,,619.5,13.2209,619.5,13.2209,4.2817,3.3729,,,,610,55.9329,
,,626.5,36.8357,,,620,13.2358,620,13.2358,4.2718,3.3772,,,,610.5,53.5356,
,,627,41.5033,,,620.5,13.3014,620.5,13.3014,4.2304,3.3833,,,,611,50.3221,
,,627.5,45.496,,,621,13.4105,621,13.4105,4.161,3.3955,,,,611.5,46.3313,
,,628,49.0534,,,621.5,13.5569,621.5,13.5569,4.0675,3.4129,,,,612,41.746,
,,628.5,51.9999,,,622,13.7471,622,13.7471,3.9472,3.4244,,,,612.5,37.3505,
,,629,54.5597,,,622.5,13.9695,622.5,13.9695,3.8056,3.4387,,,,613,33.8323,
,,629.5,56.7808,,,623,14.1997,623,14.1997,3.6571,3.46,,,,613.5,30.8403,
,,630,58.661,,,623.5,14.4416,623.5,14.4416,3.5021,3.4701,,,,614,28.7075,
,,630.5,60.1616,,,624,14.6956,624,14.6956,3.3403,3.4695,,,,614.5,27.3819,
,,631,61.4646,,,624.5,14.9459,624.5,14.9459,3.1831,3.4513,,,,615,26.5012,
,,631.5,62.4805,,,625,15.1847,625,15.1847,3.0326,3.4321,,,,615.5,26.1107,
,,632,63.3883,,,625.5,15.4158,625.5,15.4158,2.8865,3.4123,,,,616,25.9818,
,,632.5,64.0686,,,626,15.6456,626,15.6456,2.7406,3.3921,,,,616.5,25.8372,
,,633,64.6588,,,626.5,15.8706,626.5,15.8706,2.597,3.3736,,,,617,25.9111,
,,633.5,65.0375,,,627,16.0881,627,16.0881,2.4587,3.3487,,,,617.5,26.1456,
,,634,65.3251,,,627.5,16.298,627.5,16.298,2.3254,3.3211,,,,618,26.3772,
,,634.5,65.5575,,,628,16.4962,628,16.4962,2.1975,3.3029,,,,618.5,26.7402,
,,635,65.6472,,,628.5,16.6747,628.5,16.6747,2.0815,3.2877,,,,619,27.1091,
,,635.5,65.5801,,,629,16.8289,629,16.8289,1.9816,3.2719,,,,619.5,27.4492,
,,636,65.5729,,,629.5,16.9896,629.5,16.9896,1.8757,3.2631,,,,620,27.7972,
,,636.5,65.5933,,,630,17.0761,630,17.0761,1.8182,3.2592,,,,620.5,27.8973,
,,637,65.5768,,,630.5,17.0522,630.5,17.0522,1.8357,3.253,,,,621,27.9791,
,,637.5,65.5145,,,631,17.1376,631,17.1376,1.7788,3.2497,,,,621.5,28.2359,
,,638,65.4253,,,631.5,17.2436,631.5,17.2436,1.7081,3.246,,,,622,28.5816,
,,638.5,65.386,,,632,17.3396,632,17.3396,1.6429,3.247,,,,622.5,28.8967,
,,639,65.2326,,,632.5,17.4299,632.5,17.4299,1.5814,3.2481,,,,623,28.9732,
,,639.5,65.14,,,633,17.4541,633,17.4541,1.5637,3.2543,,,,623.5,29.2338,
,,640,65.0657,,,633.5,17.4846,633.5,17.4846,1.5417,3.2599,,,,624,29.408,
,,640.5,64.9714,,,634,17.5228,634,17.5228,1.5153,3.2621,,,,624.5,29.3512,
,,641,64.9295,,,634.5,17.554,634.5,17.554,1.4928,3.2682,,,,625,29.5556,
,,641.5,64.8762,,,635,17.5712,635,17.5712,1.4799,3.2737,,,,625.5,29.8714,
,,642,64.7676,,,635.5,17.5817,635.5,17.5817,1.4715,3.2791,,,,626,30.5956,
,,642.5,64.5592,,,636,17.5879,636,17.5879,1.4666,3.2823,,,,626.5,32.7367,
,,643,64.3389,,,636.5,17.5937,636.5,17.5937,1.4626,3.2827,,,,627,36.4511,
,,643.5,64.12,,,637,17.601,637,17.601,1.4566,3.2876,,,,627.5,40.7022,
,,644,63.7453,,,637.5,17.5978,637.5,17.5978,1.4587,3.2878,,,,628,44.7204,
,,644.5,63.4184,,,638,17.6159,638,17.6159,1.4475,3.2825,,,,628.5,48.4552,
,,645,63.0415,,,638.5,17.631,638.5,17.631,1.4373,3.2822,,,,629,51.8072,
,,645.5,62.5005,,,639,17.6132,639,17.6132,1.4495,3.2815,,,,629.5,54.6474,
,,646,61.9363,,,639.5,17.6069,639.5,17.6069,1.4547,3.2769,,,,630,57.154,
,,646.5,61.379,,,640,17.6117,640,17.6117,1.4524,3.2732,,,,630.5,59.2702,
,,647,60.7042,,,640.5,17.5891,640.5,17.5891,1.4663,3.28,,,,631,60.97,
,,647.5,59.8823,,,641,17.5515,641,17.5515,1.4904,3.2872,,,,631.5,62.3791,
,,648,58.7986,,,641.5,17.5245,641.5,17.5245,1.5073,3.2941,,,,632,63.5475,
,,648.5,57.7017,,,642,17.4887,642,17.4887,1.5301,3.3013,,,,632.5,64.5275,
,,649,56.5143,,,642.5,17.4072,642.5,17.4072,1.5849,3.3043,,,,633,65.2102,
,,649.5,54.9957,,,643,17.3403,643,17.3403,1.6307,3.3026,,,,633.5,65.6696,
,,650,53.162,,,643.5,17.2968,643.5,17.2968,1.6615,3.2966,,,,634,65.9397,
,,650.5,50.9552,,,644,17.1972,644,17.1972,1.7283,3.2989,,,,634.5,66.2642,
,,651,48.2981,,,644.5,17.1035,644.5,17.1035,1.7907,3.303,,,,635,66.5835,
,,651.5,45.1179,,,645,17.0207,645,17.0207,1.8465,3.3034,,,,635.5,66.7999,
,,652,41.3664,,,645.5,16.8807,645.5,16.8807,1.9407,3.3027,,,,636,66.9345,
,,652.5,37.5987,,,646,16.7611,646,16.7611,2.0201,3.3061,,,,636.5,66.9906,
,,653,34.1034,,,646.5,16.5896,646.5,16.5896,2.1335,3.3119,,,,637,67.0472,
,,653.5,30.8923,,,647,16.4005,647,16.4005,2.2594,3.311,,,,637.5,67.0933,
,,654,28.4068,,,647.5,16.1796,647.5,16.1796,2.4056,3.311,,,,638,67.1036,
,,654.5,26.5923,,,648,15.9136,648,15.9136,2.5805,3.3121,,,,638.5,67.0831,
,,655,25.2511,,,648.5,15.7554,648.5,15.7554,2.684,3.3114,,,,639,67.0096,
,,655.5,24.2926,,,649,15.5575,649,15.5575,2.8119,3.3171,,,,639.5,67.0126,
,,656,23.6744,,,649.5,15.2925,649.5,15.2925,2.982,3.3263,,,,640,66.9673,
,,656.5,23.5,,,650,15.0719,650,15.0719,3.1226,3.3347,,,,640.5,66.867,
,,657,23.1202,,,650.5,14.8365,650.5,14.8365,3.2717,3.3456,,,,641,66.7834,
,,657.5,22.7711,,,651,14.6095,651,14.6095,3.4147,3.356,,,,641.5,66.6681,
,,658,22.4997,,,651.5,14.4286,651.5,14.4286,3.5297,3.3553,,,,642,66.5863,
,,658.5,22.5344,,,652,14.2671,652,14.2671,3.6319,3.3554,,,,642.5,66.4167,
,,659,22.6088,,,652.5,14.0938,652.5,14.0938,3.7388,3.3692,,,,643,66.1817,
,,659.5,22.6151,,,653,13.9405,653,13.9405,3.8324,3.3848,,,,643.5,66.0258,
,,660,22.5243,,,653.5,13.8327,653.5,13.8327,3.9002,3.3836,,,,644,65.8001,
,,660.5,22.6213,,,654,13.752,654,13.752,3.9508,3.3817,,,,644.5,65.4967,
,,661,22.9324,,,654.5,13.6477,654.5,13.6477,4.0154,3.3842,,,,645,65.1723,
,,661.5,22.9672,,,655,13.5423,655,13.5423,4.0801,3.3902,,,,645.5,64.7593,
,,662,22.8044,,,655.5,13.4618,655.5,13.4618,4.1293,3.3946,,,,646,64.3037,
,,662.5,22.7557,,,656,13.3974,656,13.3974,4.1693,3.3944,,,,646.5,63.8046,
,,663,22.8648,,,656.5,13.3299,656.5,13.3299,4.2102,3.3999,,,,647,63.1814,
,,663.5,22.7886,,,657,13.265,657,13.265,4.2491,3.4076,,,,647.5,62.4807,
,,664,22.6757,,,657.5,13.2358,657.5,13.2358,4.2676,3.4044,,,,648,61.6406,
,,664.5,22.8193,,,658,13.2184,658,13.2184,4.2793,3.3986,,,,648.5,60.5875,
,,665,23.4006,,,658.5,13.1872,658.5,13.1872,4.2976,3.4047,,,,649,59.4608,
,,665.5,25.0121,,,659,13.1427,659,13.1427,4.3239,3.4119,,,,649.5,57.9803,
,,666,28.6875,,,659.5,13.1037,659.5,13.1037,4.3465,3.4207,,,,650,56.0879,
,,666.5,33.6851,,,660,13.0858,660,13.0858,4.3562,3.4297,,,,650.5,53.7729,
,,667,38.4498,,,660.5,13.123,660.5,13.123,4.332,3.4386,,,,651,50.8462,
,,667.5,42.8019,,,661,13.2152,661,13.2152,4.2726,3.4556,,,,651.5,47.0645,
,,668,46.7142,,,661.5,13.3654,661.5,13.3654,4.177,3.4729,,,,652,42.4802,
,,668.5,50.0882,,,662,13.5636,662,13.5636,4.0503,3.4954,,,,652.5,38.084,
,,669,52.8198,,,662.5,13.788,662.5,13.788,3.9062,3.5201,,,,653,34.2581,
,,669.5,55.2795,,,663,14.0343,663,14.0343,3.7477,3.5436,,,,653.5,31.1998,
,,670,57.4412,,,663.5,14.3104,663.5,14.3104,3.5703,3.5601,,,,654,29.0238,
,,670.5,59.2064,,,664,14.5866,664,14.5866,3.3931,3.5677,,,,654.5,27.4658,
,,671,60.6933,,,664.5,14.8671,664.5,14.8671,3.2126,3.5715,,,,655,26.5585,
,,671.5,61.7827,,,665,15.1259,665,15.1259,3.0426,3.5889,,,,655.5,26.0414,
,,672,62.7185,,,665.5,15.3704,665.5,15.3704,2.8817,3.6008,,,,656,25.7304,
,,672.5,63.5588,,,666,15.6197,666,15.6197,2.7188,3.6014,,,,656.5,25.6793,
,,673,64.1697,,,666.5,15.8541,666.5,15.8541,2.5651,3.5998,,,,657,25.8098,
,,673.5,64.6332,,,667,16.0763,667,16.0763,2.4187,3.5979,,,,657.5,25.8563,
,,674,64.9977,,,667.5,16.2873,667.5,16.2873,2.2793,3.5938,,,,658,26.0004,
,,674.5,65.2058,,,668,16.4706,668,16.4706,2.1586,3.5857,,,,658.5,26.1354,
,,675,65.4099,,,668.5,16.6366,668.5,16.6366,2.0488,3.5788,,,,659,26.3879,
,,675.5,65.4868,,,669,16.7872,669,16.7872,1.9493,3.5709,,,,659.5,26.836,
,,676,65.6245,,,669.5,16.9254,669.5,16.9254,1.8589,3.557,,,,660,27.1903,
,,676.5,65.6898,,,670,17.0612,670,17.0612,1.7698,3.5438,,,,660.5,27.5171,
,,677,65.6719,,,670.5,17.0809,670.5,17.0809,1.7569,3.5415,,,,661,27.7516,
,,677.5,65.6006,,,671,17.0662,671,17.0662,1.7683,3.5344,,,,661.5,27.9029,
,,678,65.4218,,,671.5,17.1809,671.5,17.1809,1.6936,3.5198,,,,662,28.0441,
,,678.5,65.3515,,,672,17.2759,672,17.2759,1.6309,3.5109,,,,662.5,28.134,
,,679,65.3627,,,672.5,17.3487,672.5,17.3487,1.5835,3.5007,,,,663,28.3778,
,,679.5,65.3658,,,673,17.4498,673,17.4498,1.5168,3.4902,,,,663.5,28.5595,
,,680,65.3132,,,673.5,17.489,673.5,17.489,1.4914,3.4834,,,,664,28.7159,
,,680.5,65.2478,,,674,17.5179,674,17.5179,1.4728,3.478,,,,664.5,28.8691,
,,681,65.0938,,,674.5,17.5458,674.5,17.5458,1.4551,3.4716,,,,665,29.0201,
,,681.5,64.9686,,,675,17.5693,675,17.5693,1.4406,3.4644,,,,665.5,29.2288,
,,682,64.8216,,,675.5,17.5979,675.5,17.5979,1.4233,3.4538,,,,666,29.9034,
,,682.5,64.7077,,,676,17.6235,676,17.6235,1.4083,3.4412,,,,666.5,31.8136,
,,683,64.5626,,,676.5,17.6445,676.5,17.6445,1.3962,3.431,,,,667,35.086,
,,683.5,64.3983,,,677,17.6523,677,17.6523,1.3913,3.4293,,,,667.5,39.0433,
,,684,64.1142,,,677.5,17.6779,677.5,17.6779,1.3779,3.4098,,,,668,43.1567,
,,684.5,63.7091,,,678,17.6973,678,17.6973,1.368,3.3937,,,,668.5,46.8576,
,,685,63.3262,,,678.5,17.7021,678.5,17.7021,1.3649,3.3931,,,,669,50.3154,
,,685.5,63.0237,,,679,17.6909,679,17.6909,1.373,3.3913,,,,669.5,53.3903,
,,686,62.5682,,,679.5,17.6846,679.5,17.6846,1.3795,3.3807,,,,670,55.9952,
,,686.5,61.9678,,,680,17.6798,680,17.6798,1.3831,3.3794,,,,670.5,58.1599,
,,687,61.2617,,,680.5,17.6756,680.5,17.6756,1.3869,3.3749,,,,671,59.8936,
,,687.5,60.5068,,,681,17.6612,681,17.6612,1.398,3.3694,,,,671.5,61.4262,
,,688,59.6615,,,681.5,17.6331,681.5,17.6331,1.4189,3.3615,,,,672,62.6962,
,,688.5,58.6112,,,682,17.604,682,17.604,1.4397,3.3571,,,,672.5,63.7228,
,,689,57.4653,,,682.5,17.5793,682.5,17.5793,1.4567,3.3564,,,,673,64.5935,
,,689.5,56.099,,,683,17.5459,683,17.5459,1.481,3.3488,,,,673.5,65.2229,
,,690,54.4778,,,683.5,17.5036,683.5,17.5036,1.5107,3.3456,,,,674,65.6925,
,,690.5,52.6332,,,684,17.4781,684,17.4781,1.5284,3.3438,,,,674.5,66.0456,
,,691,50.3499,,,684.5,17.4066,684.5,17.4066,1.5788,3.3355,,,,675,66.292,
,,691.5,47.6457,,,685,17.314,685,17.314,1.6433,3.3279,,,,675.5,66.5337,
,,692,44.3208,,,685.5,17.2111,685.5,17.2111,1.7131,3.3272,,,,676,66.6849,
,,692.5,40.5512,,,686,17.1064,686,17.1064,1.7839,3.3271,,,,676.5,66.837,
,,693,36.6575,,,686.5,17.0396,686.5,17.0396,1.8299,3.3227,,,,677,66.9095,
,,693.5,33.1269,,,687,16.9121,687,16.9121,1.9163,3.3189,,,,677.5,66.9448,
,,694,30.1158,,,687.5,16.7871,687.5,16.7871,2.0001,3.3191,,,,678,66.863,
,,694.5,27.806,,,688,16.6278,688,16.6278,2.106,3.322,,,,678.5,66.7523,
,,695,26.0466,,,688.5,16.4476,688.5,16.4476,2.2257,3.323,,,,679,66.6085,
,,695.5,24.697,,,689,16.2235,689,16.2235,2.3748,3.3202,,,,679.5,66.4629,
,,696,23.6287,,,689.5,15.9814,689.5,15.9814,2.5352,3.3155,,,,680,66.5357,
,,696.5,23.0823,,,690,15.8223,690,15.8223,2.64,3.3132,,,,680.5,66.5098,
,,697,22.74,,,690.5,15.5715,690.5,15.5715,2.8018,3.3226,,,,681,66.3387,
,,697.5,22.5369,,,691,15.3242,691,15.3242,2.9614,3.3268,,,,681.5,66.1612,
,,698,22.2168,,,691.5,15.0967,691.5,15.0967,3.1068,3.3339,,,,682,66.0432,
,,698.5,22.076,,,692,14.8594,692,14.8594,3.2574,3.3431,,,,682.5,65.9293,
,,699,22.3047,,,692.5,14.6594,692.5,14.6594,3.3845,3.3472,,,,683,65.8284,
,,699.5,22.3004,,,693,14.4513,693,14.4513,3.5156,3.3542,,,,683.5,65.7246,
,,700,22.2715,,,693.5,14.2778,693.5,14.2778,3.6244,3.3599,,,,684,65.4593,
,,700.5,22.257,,,694,14.1112,694,14.1112,3.7275,3.3716,,,,684.5,65.0991,
,,701,22.0984,,,694.5,13.9471,694.5,13.9471,3.8286,3.3835,,,,685,64.8374,
,,701.5,22.02,,,695,13.8347,695,13.8347,3.8987,3.3848,,,,685.5,64.453,
,,702,22.161,,,695.5,13.7244,695.5,13.7244,3.9675,3.3859,,,,686,64.0454,
,,702.5,22.415,,,696,13.621,696,13.621,4.0309,3.3922,,,,686.5,63.6117,
,,703,22.3248,,,696.5,13.5319,696.5,13.5319,4.0854,3.3978,,,,687,62.8752,
,,703.5,22.3232,,,697,13.4649,697,13.4649,4.1274,3.3952,,,,687.5,62.1094,
,,704,22.4261,,,697.5,13.414,697.5,13.414,4.1585,3.3977,,,,688,61.2821,
,,704.5,22.4626,,,698,13.3569,698,13.3569,4.1935,3.3999,,,,688.5,60.307,
,,705,22.6216,,,698.5,13.3047,698.5,13.3047,4.2256,3.4013,,,,689,59.2169,
,,705.5,23.3467,,,699,13.2594,699,13.2594,4.2535,3.4023,,,,689.5,57.9547,
,,706,25.2946,,,699.5,13.2213,699.5,13.2213,4.2766,3.4042,,,,690,56.2217,
,,706.5,29.5592,,,700,13.171,700,13.171,4.3067,3.4101,,,,690.5,54.1248,
,,707,34.7705,,,700.5,13.1405,700.5,13.1405,4.3253,3.4117,,,,691,51.3577,
,,707.5,39.6039,,,701,13.1027,701,13.1027,4.3471,3.4209,,,,691.5,48.0133,
,,708,44.0434,,,701.5,13.1039,701.5,13.1039,4.3457,3.4253,,,,692,43.8958,
,,708.5,47.8782,,,702,13.1647,702,13.1647,4.3078,3.4282,,,,692.5,39.1891,
,,709,50.9335,,,702.5,13.2635,702.5,13.2635,4.245,3.4412,,,,693,35.1487,
,,709.5,53.5401,,,703,13.4223,703,13.4223,4.1434,3.4625,,,,693.5,31.8111,
,,710,55.7817,,,703.5,13.6116,703.5,13.6116,4.021,3.4917,,,,694,29.2245,
,,710.5,57.8055,,,704,13.8373,704,13.8373,3.8759,3.5162,,,,694.5,27.6081,
,,711,59.5133,,,704.5,14.1128,704.5,14.1128,3.7015,3.523,,,,695,26.7507,
,,711.5,60.8874,,,705,14.3823,705,14.3823,3.5276,3.5424,,,,695.5,26.2632,
,,712,62.0611,,,705.5,14.652,705.5,14.652,3.3534,3.555,,,,696,25.8014,
,,712.5,62.9012,,,706,14.9262,706,14.9262,3.1762,3.5627,,,,696.5,25.6284,
,,713,63.4778,,,706.5,15.1884,706.5,15.1884,3.0061,3.5673,,,,697,25.8707,
,,713.5,63.9794,,,707,15.4445,707,15.4445,2.8391,3.5694,,,,697.5,25.891,
,,714,64.4161,,,707.5,15.6902,707.5,15.6902,2.6777,3.5736,,,,698,25.9646,
,,714.5,64.7331,,,708,15.9231,708,15.9231,2.523,3.5812,,,,698.5,26.1784,
,,715,65.0102,,,708.5,16.1314,708.5,16.1314,2.3836,3.5902,,,,699,26.3785,
,,715.5,65.2514,,,709,16.334,709,16.334,2.2506,3.5818,,,,699.5,26.6533,
,,716,65.313,,,709.5,16.5213,709.5,16.5213,2.1283,3.5676,,,,700,27.1027,
,,716.5,65.3126,,,710,16.6878,710,16.6878,2.0185,3.5586,,,,700.5,27.5515,
,,717,65.3189,,,710.5,16.8363,710.5,16.8363,1.9205,3.5495,,,,701,27.8335,
,,717.5,65.28,,,711,16.9725,711,16.9725,1.8304,3.541,,,,701.5,28.0704,
,,718,65.2425,,,711.5,17.0645,711.5,17.0645,1.7695,3.5345,,,,702,28.149,
,,718.5,65.19,,,712,17.0513,712,17.0513,1.7795,3.5293,,,,702.5,28.1089,
,,719,65.2047,,,712.5,17.1064,712.5,17.1064,1.7428,3.5263,,,,703,28.1451,
,,719.5,65.1114,,,713,17.229,713,17.229,1.661,3.5194,,,,703.5,28.5467,
,,720,64.882,,,713.5,17.3165,713.5,17.3165,1.6038,3.5082,,,,704,28.7603,
,,720.5,64.8776,,,714,17.4157,714,17.4157,1.5378,3.5005,,,,704.5,28.7907,
,,721,64.9001,,,714.5,17.4674,714.5,17.4674,1.5042,3.4922,,,,705,28.9484,
,,721.5,64.8241,,,715,17.4933,715,17.4933,1.4881,3.4851,,,,705.5,29.2886,
,,722,64.6128,,,715.5,17.5387,715.5,17.5387,1.4594,3.4744,,,,706,29.7643,
,,722.5,64.393,,,716,17.5781,716,17.5781,1.4336,3.4684,,,,706.5,31.0672,
,,723,64.2975,,,716.5,17.6003,716.5,17.6003,1.4198,3.4618,,,,707,33.9479,
,,723.5,64.2154,,,717,17.6293,717,17.6293,1.4018,3.453,,,,707.5,37.9891,
,,724,64.0364,,,717.5,17.6585,717.5,17.6585,1.3845,3.4406,,,,708,42.1462,
,,724.5,63.7479,,,718,17.6812,718,17.6812,1.3705,3.4337,,,,708.5,46.0495,
,,725,63.3872,,,718.5,17.6981,718.5,17.6981,1.3594,3.4311,,,,709,49.5272,
,,725.5,62.9131,,,719,17.7091,719,17.7091,1.3546,3.4187,,,,709.5,52.626,
,,726,62.3862,,,719.5,17.7357,719.5,17.7357,1.3394,3.4045,,,,710,55.2348,
,,726.5,61.9774,,,720,17.7459,720,17.7459,1.3335,3.3989,,,,710.5,57.4992,
,,727,61.4241,,,720.5,17.737,720.5,17.737,1.3393,3.4007,,,,711,59.4086,
,,727.5,60.7414,,,721,17.7352,721,17.7352,1.3426,3.391,,,,711.5,61.0339,
,,728,60.0412,,,721.5,17.7321,721.5,17.7321,1.3483,3.3748,,,,712,62.3954,
,,728.5,59.0986,,,722,17.7262,722,17.7262,1.3541,3.367,,,,712.5,63.458,
,,729,58.0341,,,722.5,17.7117,722.5,17.7117,1.3653,3.3601,,,,713,64.3028,
,,729.5,56.6527,,,723,17.6686,723,17.6686,1.3959,3.3556,,,,713.5,65.0011,
,,730,55.1682,,,723.5,17.6427,723.5,17.6427,1.4144,3.3519,,,,714,65.5336,
,,730.5,53.3797,,,724,17.6078,724,17.6078,1.4383,3.3515,,,,714.5,65.9454,
,,731,51.1731,,,724.5,17.561,724.5,17.561,1.471,3.3482,,,,715,66.2368,
,,731.5,48.5738,,,725,17.5243,725,17.5243,1.4971,3.3438,,,,715.5,66.5345,
,,732,45.4733,,,725.5,17.4762,725.5,17.4762,1.53,3.3429,,,,716,66.7178,
,,732.5,41.9718,,,726,17.4404,726,17.4404,1.5555,3.338,,,,716.5,66.7356,
,,733,38.2158,,,726.5,17.3807,726.5,17.3807,1.5965,3.3355,,,,717,66.8122,
,,733.5,34.5508,,,727,17.2896,727,17.2896,1.6604,3.3259,,,,717.5,66.8385,
,,734,31.286,,,727.5,17.1765,727.5,17.1765,1.7377,3.3224,,,,718,66.767,
,,734.5,28.7019,,,728,17.0696,728,17.0696,1.8106,3.3186,,,,718.5,66.7697,
,,735,26.7805,,,728.5,16.9765,728.5,16.9765,1.8742,3.3142,,,,719,66.7168,
,,735.5,25.3666,,,729,16.8429,729,16.8429,1.9635,3.3159,,,,719.5,66.6391,
,,736,24.3879,,,729.5,16.7071,729.5,16.7071,2.0557,3.3091,,,,720,66.5714,
,,736.5,23.6244,,,730,16.5158,730,16.5158,2.1836,3.3076,,,,720.5,66.5255,
,,737,23.0206,,,730.5,16.3034,730.5,16.3034,2.3247,3.3073,,,,721,66.4403,
,,737.5,22.7108,,,731,16.0524,731,16.0524,2.4889,3.3141,,,,721.5,66.3161,
,,738,22.2523,,,731.5,15.8749,731.5,15.8749,2.6048,3.3174,,,,722,66.2344,
,,738.5,22.345,,,732,15.692,732,15.692,2.7257,3.3103,,,,722.5,66.1334,
,,739,22.4779,,,732.5,15.4412,732.5,15.4412,2.8884,3.3117,,,,723,65.9446,
,,739.5,22.4267,,,733,15.1994,733,15.1994,3.0429,3.3215,,,,723.5,65.7311,
,,740,22.5125,,,733.5,14.9688,733.5,14.9688,3.1901,3.3275,,,,724,65.5333,
,,740.5,22.5033,,,734,14.7526,734,14.7526,3.3263,3.34,,,,724.5,65.2813,
,,741,22.5374,,,734.5,14.5296,734.5,14.5296,3.4669,3.3482,,,,725,64.9071,
,,741.5,22.6192,,,735,14.3493,735,14.3493,3.5808,3.3507,,,,725.5,64.5387,
,,742,22.6083,,,735.5,14.1922,735.5,14.1922,3.6786,3.3585,,,,726,64.2305,
,,742.5,22.7599,,,736,14.0576,736,14.0576,3.7627,3.3624,,,,726.5,63.8053,
,,743,22.847,,,736.5,13.9164,736.5,13.9164,3.8501,3.3698,,,,727,63.2518,
,,743.5,22.9185,,,737,13.7845,737,13.7845,3.9319,3.374,,,,727.5,62.6507,
,,744,22.8341,,,737.5,13.679,737.5,13.679,3.9964,3.3823,,,,728,61.9182,
,,744.5,22.813,,,738,13.6014,738,13.6014,4.0447,3.382,,,,728.5,61.0389,
,,745,22.9172,,,738.5,13.5326,738.5,13.5326,4.0878,3.3794,,,,729,60.0376,
,,745.5,23.135,,,739,13.4484,739,13.4484,4.1393,3.3846,,,,729.5,58.9016,
,,746,24.8395,,,739.5,13.3788,739.5,13.3788,4.1813,3.3913,,,,730,57.3991,
,,746.5,28.6907,,,740,13.3203,740,13.3203,4.2169,3.3954,,,,730.5,55.4625,
,,747,33.6043,,,740.5,13.2747,740.5,13.2747,4.2447,3.3973,,,,731,53.1612,
,,747.5,38.3488,,,741,13.2278,741,13.2278,4.273,3.4015,,,,731.5,50.3047,
,,748,42.6877,,,741.5,13.1938,741.5,13.1938,4.2936,3.4039,,,,732,46.5124,
,,748.5,46.5911,,,742,13.174,742,13.174,4.3058,3.4038,,,,732.5,41.9508,
,,749,49.8727,,,742.5,13.1517,742.5,13.1517,4.3198,3.4023,,,,733,37.549,
,,749.5,52.7333,,,743,13.1579,743,13.1579,4.3159,3.4025,,,,733.5,33.7894,
,,750,55.0956,,,743.5,13.1759,743.5,13.1759,4.3027,3.4173,,,,734,30.7427,
,,750.5,57.2423,,,744,13.2482,744,13.2482,4.2542,3.4424,,,,734.5,28.6607,
,,751,58.9691,,,744.5,13.3928,744.5,13.3928,4.1618,3.4617,,,,735,27.3454,
,,751.5,60.3832,,,745,13.5917,745,13.5917,4.0354,3.4793,,,,,,
,,752,61.515,,,745.5,13.8132,745.5,13.8132,3.8927,3.5061,,,,,,
,,752.5,62.4115,,,746,14.0656,746,14.0656,3.7312,3.5239,,,,,,
,,753,63.1709,,,746.5,14.3399,746.5,14.3399,3.5558,3.5351,,,,,,
,,753.5,63.7308,,,747,14.6071,747,14.6071,3.3818,3.5569,,,,,,
,,754,64.1855,,,747.5,14.8874,747.5,14.8874,3.201,3.5632,,,,,,
,,,,,,748,15.1511,748,15.1511,3.0308,3.5636,,,,,,
,,,,,,748.5,15.4127,748.5,15.4127,2.8599,3.5699,,,,,,
,,,,,,749,15.6515,749,15.6515,2.703,3.574,,,,,,
,,,,,,749.5,15.8817,749.5,15.8817,2.5526,3.57,,,,,,
,,,,,,750,16.1018,750,16.1018,2.4072,3.57,,,,,,
,,,,,,750.5,16.3076,750.5,16.3076,2.2703,3.571,,,,,,
,,,,,,751,16.4964,751,16.4964,2.1466,3.5595,,,,,,
,,,,,,751.5,16.6684,751.5,16.6684,2.0324,3.5544,,,,,,
,,,,,,752,16.8096,752,16.8096,1.9389,3.5474,,,,,,
,,,,,,752.5,16.9647,752.5,16.9647,1.8362,3.5383,,,,,,
,,,,,,753,17.0254,753,17.0254,1.7956,3.536,,,,,,
,,,,,,753.5,17.0077,753.5,17.0077,1.8091,3.5286,,,,,,
,,,,,,754,17.1328,754,17.1328,1.7274,3.5143,,,,,,
,,,,,,754.5,17.2369,754.5,17.2369,1.6579,3.509,,,,,,
,,,,,,755,17.3504,755,17.3504,1.5825,3.5002,,,,,,
,,,,,,755.5,17.4251,755.5,17.4251,1.5343,3.4874,,,,,,
,,,,,,756,17.4655,756,17.4655,1.5075,3.4835,,,,,,
,,,,,,756.5,17.5036,756.5,17.5036,1.482,3.4812,,,,,,
,,,,,,757,17.5409,757,17.5409,1.4574,3.4767,,,,,,
,,,,,,757.5,17.5835,757.5,17.5835,1.4302,3.4674,,,,,,
,,,,,,758,17.5989,758,17.5989,1.4217,3.4581,,,,,,
,,,,,,758.5,17.6272,758.5,17.6272,1.4032,3.4536,,,,,,
,,,,,,759,17.6532,759,17.6532,1.386,3.4506,,,,,,
,,,,,,759.5,17.6849,759.5,17.6849,1.367,3.438,,,,,,
,,,,,,760,17.7131,760,17.7131,1.3507,3.4237,,,,,,
,,,,,,760.5,17.725,760.5,17.725,1.345,3.4132,,,,,,
,,,,,,761,17.7484,761,17.7484,1.3319,3.3988,,,,,,
,,,,,,761.5,17.7509,761.5,17.7509,1.3306,3.3967,,,,,,
,,,,,,762,17.7517,762,17.7517,1.3314,3.3904,,,,,,
,,,,,,762.5,17.7629,762.5,17.7629,1.327,3.3755,,,,,,
,,,,,,763,17.7471,763,17.7471,1.3385,3.3721,,,,,,
,,,,,,763.5,17.738,763.5,17.738,1.3471,3.3615,,,,,,
,,,,,,764,17.7165,764,17.7165,1.3635,3.3535,,,,,,
,,,,,,764.5,17.6849,764.5,17.6849,1.3856,3.351,,,,,,
,,,,,,765,17.6649,765,17.6649,1.4004,3.3459,,,,,,
,,,,,,765.5,17.6298,765.5,17.6298,1.424,3.3478,,,,,,
,,,,,,766,17.6032,766,17.6032,1.4425,3.3468,,,,,,
,,,,,,766.5,17.5663,766.5,17.5663,1.4694,3.3384,,,,,,
,,,,,,767,17.5259,767,17.5259,1.4989,3.329,,,,,,
,,,,,,767.5,17.4905,767.5,17.4905,1.524,3.3245,,,,,,
,,,,,,768,17.4199,768,17.4199,1.5711,3.3291,,,,,,
,,,,,,768.5,17.3221,768.5,17.3221,1.6376,3.3289,,,,,,
,,,,,,769,17.2272,769,17.2272,1.7028,3.3252,,,,,,
,,,,,,769.5,17.1045,769.5,17.1045,1.7867,3.3201,,,,,,
,,,,,,770,16.9942,770,16.9942,1.8614,3.3179,,,,,,
,,,,,,770.5,16.8691,770.5,16.8691,1.9454,3.3181,,,,,,
,,,,,,771,16.7216,771,16.7216,2.0447,3.3158,,,,,,
,,,,,,771.5,16.555,771.5,16.555,2.156,3.3151,,,,,,
,,,,,,772,16.3655,772,16.3655,2.2834,3.3072,,,,,,
,,,,,,772.5,16.1559,772.5,16.1559,2.4235,3.3002,,,,,,
,,,,,,773,15.8836,773,15.8836,2.602,3.3019,,,,,,
,,,,,,773.5,15.6998,773.5,15.6998,2.7211,3.3078,,,,,,
,,,,,,774,15.4968,774,15.4968,2.8521,3.3138,,,,,,
,,,,,,774.5,15.2361,774.5,15.2361,3.0196,3.3197,,,,,,
,,,,,,775,15.0221,775,15.0221,3.1562,3.3263,,,,,,
,,,,,,775.5,14.8184,775.5,14.8184,3.2855,3.3329,,,,,,
,,,,,,776,14.6114,776,14.6114,3.4157,3.3436,,,,,,
,,,,,,776.5,14.4062,776.5,14.4062,3.5453,3.3475,,,,,,
,,,,,,777,14.247,777,14.247,3.645,3.353,,,,,,
,,,,,,777.5,14.0846,777.5,14.0846,3.7454,3.3645,,,,,,
,,,,,,778,13.9627,778,13.9627,3.8223,3.3615,,,,,,
,,,,,,778.5,13.8463,778.5,13.8463,3.8953,3.3616,,,,,,
,,,,,,779,13.7349,779,13.7349,3.9637,3.3691,,,,,,
,,,,,,779.5,13.6447,779.5,13.6447,4.0183,3.3787,,,,,,
,,,,,,780,13.5602,780,13.5602,4.0701,3.3829,,,,,,
,,,,,,780.5,13.4752,780.5,13.4752,4.1222,3.3877,,,,,,
,,,,,,781,13.4125,781,13.4125,4.1602,3.3933,,,,,,
,,,,,,781.5,13.3726,781.5,13.3726,4.1854,3.3898,,,,,,
,,,,,,782,13.3281,782,13.3281,4.2131,3.3887,,,,,,
,,,,,,782.5,13.2988,782.5,13.2988,4.2318,3.3847,,,,,,
,,,,,,783,13.2443,783,13.2443,4.2645,3.391,,,,,,
,,,,,,783.5,13.1915,783.5,13.1915,4.2959,3.3985,,,,,,
,,,,,,784,13.1678,784,13.1678,4.3098,3.4027,,,,,,
,,,,,,784.5,13.1566,784.5,13.1566,4.3151,3.4133,,,,,,
,,,,,,785,13.1873,785,13.1873,4.2949,3.4214,,,,,,
,,,,,,785.5,13.245,785.5,13.245,4.2563,3.4414,,,,,,
,,,,,,786,13.3734,786,13.3734,4.1732,3.4645,,,,,,
,,,,,,786.5,13.5629,786.5,13.5629,4.0528,3.4819,,,,,,
,,,,,,787,13.7769,787,13.7769,3.9155,3.5049,,,,,,
,,,,,,787.5,14.0248,787.5,14.0248,3.7571,3.5222,,,,,,
,,,,,,788,14.2887,788,14.2887,3.5877,3.5384,,,,,,
,,,,,,788.5,14.5624,788.5,14.5624,3.4109,3.554,,,,,,
