"x","RQ","qO2"
0.0428714,NA,3.55135602327007
0.0462207,NA,3.35983820874218
0.0471827,NA,3.11872542270958
0.0479071,0.674703,NA
0.0482654,0.646935,NA
0.0489508,NA,2.8780527695423
0.0501114,0.628868,NA
0.0528726,NA,3.04926445414792
0.0540799,0.633804,NA
0.0559571,NA,3.26837059691501
0.0563427,0.645941,NA
0.0594895,0.652064,NA
0.0614913,NA,3.44044254121193
0.0628388,0.642491,NA
0.0651639,0.649799,NA
0.0666205,0.661915,NA
0.0684821,NA,3.8549076580587
0.0689455,0.669223,NA
0.0715198,0.657214,NA
0.0732256,NA,4.00239218001624
0.0732879,0.645184,NA
0.0742499,0.633132,NA
0.0763257,NA,4.19733102726995
0.0773656,0.641669,NA
0.0778602,NA,4.31896774641019
0.0803566,NA,4.19949167951783
0.0805747,0.642962,NA
0.0838773,0.637011,NA
0.0842628,NA,4.39485065359752
0.0848392,0.624959,NA
0.0857194,NA,4.63724382614738
0.0865451,0.617758,NA
0.0880016,0.629874,NA
0.0889285,NA,4.66311163500402
0.090389,0.632353,NA
0.0921221,NA,4.71312673333471
0.0960166,0.633711,NA
0.0968968,NA,4.81231667634413
0.100865,NA,4.91108649252758
0.101707,0.630239,NA
0.105578,NA,5.10688559947258
0.106653,0.621916,NA
0.109484,NA,5.30224457355226
0.109846,0.624416,NA
0.112234,0.626895,NA
0.115902,NA,5.35398019126553
0.11797,0.619801,NA
0.120677,NA,5.45317013427495
0.122698,0.628381,NA
0.123917,NA,5.43072335814414
0.126001,0.62243,NA
0.126258,NA,5.55278020411036
0.130032,0.622537,NA
0.131854,NA,5.62824298447171
0.134141,0.616608,NA
0.135064,NA,5.65411079332834
0.137544,NA,5.55878201591004
0.139768,0.617965,NA
0.142304,NA,5.68211924839353
0.143706,0.625316,NA
0.1479,NA,5.75758202875488
0.154264,0.619558,NA
0.156643,NA,5.95552178190842
0.159163,0.614857,NA
0.163077,NA,5.98311011014763
0.164094,0.607742,NA
0.167108,NA,5.98525075635618
0.167272,0.611449,NA
0.16807,NA,5.74413797032358
0.16969,0.611514,NA
0.173032,NA,5.55348041548699
0.174512,0.612849,NA
0.179395,0.609356,NA
0.179528,NA,5.48445957979063
0.184342,0.601033,NA
0.185155,NA,5.51160777516453
0.188326,0.604762,NA
0.190861,NA,5.41799951712881
0.193953,0.60612,NA
0.195714,NA,5.39641300068928
0.2011,0.614764,NA
0.201341,NA,5.42356119606318
0.205006,0.624529,NA
0.207674,0.605276,NA
0.207853,NA,5.33037306485344
0.211674,0.607798,NA
0.213496,NA,5.33337397075328
0.215813,0.599454,NA
0.217574,NA,5.26305274250033
0.21831,0.593482,NA
0.219844,0.599561,NA
0.224783,NA,5.33937578255296
0.225597,0.59126,NA
0.387104,NA,NA
0.404353,NA,NA
0.424827,NA,NA
0.444526,NA,NA
0.462581,NA,NA
0.485489,NA,NA
