x,DW,Glc_axis,Glc,EtOH_axis,EtOH
-0.0935539,,0.034336,,,
-0.0656406,,1.97151,,,
-0.0482224,,3.97877,,,
-0.0340299,,5.98558,,,
-0.0206439,,7.99227,,,
0.00645146,,10.0009,,,
0.0443577,,,-0.0175144,,
0.0459628,,,,,0.0304481
0.0475083,5.44833,,,,
0.102432,,,-0.0807973,,
0.10322,,,,,0.0386472
0.103951,5.50415,,,,
0.15727,,,-0.0729447,,
0.158871,,,,,-0.0011163
0.160386,5.60769,,,,
0.203225,,,,,0.00523508
0.214527,,,-0.0647456,,
0.215314,,,,,0.0546989
0.216859,5.47258,,,,
0.227391,,,,,0.17576
0.237859,,,,,0.272724
0.248316,,,,,0.441286
0.248401,,,-0.0837612,,
0.259671,,,0.0371845,,
0.260385,,,,,0.610079
0.270815,,,,,0.945701
0.270942,,,0.15813,,
0.271731,5.26564,,,,
0.28204,,,,,1.35304
0.282232,,,0.159747,,
0.293284,,,,,1.64104
0.293522,,,0.161364,,
0.304789,,,0.306175,,
0.305296,,,,,2.16782
0.315269,,,0.331542,,
0.316516,,,,,2.59902
0.326555,,,0.357025,,
0.326946,,,,,2.93465
0.327537,4.27125,,,,
0.337842,,,0.382507,,
0.33819,,,,,3.22265
0.348573,,,,,3.84466
0.349116,,,0.479587,,
0.360402,,,0.50507,,
0.360593,,,,,4.32371
0.371692,,,0.506686,,
0.381772,3.0141,,,,
0.382165,,,0.579785,,
0.382274,,,,,4.89961
0.393458,,,0.557536,,
0.393487,,,,,5.37854
0.415811,,,1.96885,,
0.415902,,,,,6.40801
0.426343,,,,,6.67203
0.426805,,,3.80813,,
0.436296,,,,-0.0329887,
0.438394,,,,,6.96015
0.438486,,,6.38737,,
0.439202,1.94833,,,,
0.448873,,,,,6.98552
0.449383,,,8.8233,,
0.471452,,,,2.00069,
0.485648,,,,3.98362,
0.495002,,,,5.98974,
0.50194,,,,7.97164,
0.507266,,,,9.95331,
