D,Bt,Pt,t2,Dt
0.07,4.539404607498,6.58236057068742,9.94688407139769,16.9699215613613
0.11,4.5094496942746,5.4629114940399,6.55194243715645,8.92440244580323
0.17,2.59465134951516,3.41192637885245,3.95667346056452,5.45472793527269
