D,Pyr,Glycerol,pyr_g/L,,
0.09994561080792,0,0.21342390029475,-9.23916474394823E-05,0.10000273048726,0.09988849112859
0.14991564564644,0,0.19873736601087,-0.00017907268557,0.14993515092768,0.14989614036519
0.19988365144721,0,0.20232740772471,-8.08502054691825E-05,0.19987303234262,0.1998942705518
0.24905612152865,0,0.25812603902131,-7.5199707837859E-05,0.24876786762598,0.24934437543133
0.29875792364972,0,0.27999265673286,-6.94890985296272E-05,0.2981828607315,0.29933298656794
0.3231922363784,0.00659276147829,0.4266744178931,0.00058055857578,0.32316954960613,0.32321492315067
0.34035114066105,0.01291452209647,,0.00113725281581,0.34035114066105,
0.35703305254823,0.02710964271574,,0.00238727513755,0.35703305254823,
0.37891919181365,0.05075907545702,0.51916898693511,0.00446984418474,0.37790080139801,0.37993758222929
0.3884281950114,0.09854191980559,,0.00867760145808,0.3884281950114,
0.39205564733027,0.09329733640968,,0.00821576344424,0.39205564733027,
0.39811119416913,0.05918535912734,0.81194096829137,0.00521186272475,0.39872895818259,0.39749343015567
0.40680164375333,0.3631329610769,,0.03197748855243,0.40680164375333,
0.41756112878343,0.30015495515175,,0.02643164535066,0.41756112878343,
0.42960714204928,0.36053899818423,1.29558690042734,0.0317490641801,0.43020191953254,0.42901236456602
0.43938928000956,0.39992218111322,1.90412956786913,0.03521714726883,0.44018731142572,0.43859124859339
0.44913921389272,0.44192867967289,,0.03891623953199,0.44913921389272,
0.46542977275097,0.30599410214753,2.37198747564993,0.02694584063511,0.46699113956886,0.46386840593309
0.47944586391477,0.3427566999331,2.70126161409091,0.03018315499611,0.48009065217688,0.47880107565265
