D,qCO2,qO2,Y,RQ,,,
0.05007897917971,1.47132905786952,1.15119271203014,0.50454292540831,1.2780910116038,0.04974131559497,0.04971828420319,0.05077733774097
0.10039023638811,2.83190852768688,2.42440992527361,0.49999607239878,1.16808156003869,0.09983919901007,0.10016959479407,0.10116191536019
0.15059071402947,4.22153895759921,3.78493705101873,0.49981540274278,1.1153524882172,0.15029888465251,0.15062718667362,0.15084607076228
0.20031098967964,5.58217077148882,5.14562120898058,0.49963342388636,1.08483903979297,0.20003705960315,0.2000056531598,0.20089025627598
0.25098562143289,6.88443894482726,6.44788938231902,0.49799561417864,1.06770425741256,0.25085017242137,0.25081876597803,0.25128792589926
0.27559737761164,7.52109989552124,6.50253659374091,0.5029974143292,1.15664091806277,0.27571611925236,0.27528312908676,0.27579288449579
0.30093610830812,8.21601979862189,7.25545372888703,0.50072267862403,1.13239228112095,0.30022654514467,0.30123657636267,0.30134520341701
0.32584116430858,9.58021100942403,9.17271240701076,0.49990508297058,1.044425093073,0.32550454451235,0.32583494029635,0.32618400811704
0.34072858941131,10.4220607233113,9.81089133579979,0.48603083166956,1.06229499100468,0.34031331067882,0.34026934165813,0.34160311589697
0.35941365938524,10.2446143184069,9.80806475589866,0.47215003436651,1.0445092455416,0.35972500518206,0.35969359873872,0.35882237423494
0.38155593667879,11.6385893063154,11.2601940080694,0.47496874284031,1.03360468727048,0.38032888827472,0.38066137782161,0.38367754394004
0.39106190978978,18.0106425967685,10.8803854198727,0.24003338461035,1.65533130507238,0.39157867628123,0.39070599590879,0.39090105717933
0.39689243711907,18.8538009124619,9.8900355730315,,1.90634308372693,0.39739473083631,0.39639014340182,
0.40089309265437,20.5121658092708,9.30734136082026,0.22254246718816,2.20386950623921,0.40111115996558,0.40066476971749,0.40090334828004
0.41591712257214,23.1002661172633,9.30514290978605,0.20212286845809,2.4825267426005,0.41568584344097,0.41577252522461,0.41629299905083
0.43596368660747,25.0468898199155,9.53514276322264,0.17878506202337,2.62679756788982,0.43848775881527,0.43521353240831,0.43418976859883
0.44124661357447,30.2557531369803,9.33058212889624,0.18240172814454,3.24264367635542,0.44317904394599,0.44095421149936,0.43960658527804
0.45096846747537,30.4582723524892,10.3477844847982,0.16708866559749,2.94345832165667,0.45146699496869,0.4507396217408,0.45069878571662
0.47122036260838,29.0292268361777,10.6650419066642,0.17283212777796,2.72190461980635,0.47186778306104,0.47054661867762,0.47124668608647
0.48086902543987,31.1234084784835,10.7508861851431,0.17352273099205,2.89496214009722,0.48065153713603,0.48062473697104,0.48133080221255
