0.15743702778203425, 13.440575678638362
0.15864166244298028, 13.709320006129257
0.1580758849114205, 14.038089793609071
0.19001874138073296, 13.913795542144532
0.19709803274437465, 13.643813576303351
0.267518476172515, 13.722934027982413
0.27583304848006224, 14.110138026143638
0.2923608246207523, 13.599700609389549
0.2965640801989651, 14.375965063237427
0.3054067115359681, 13.956317259750822
0.3065146925352727, 12.999976425936184
0.3170051509329436, 10.966536616414622
0.326321620952628, 9.052794115913672
0.3556265396810429, 5.492638998573771
0.3568311743419889, 5.761383326064664
0.35676516696330696, 4.924739801270642
0.36613821473614727, 3.728120322021711
0.38627989485967534, 4.02391588774031
0.39698487723806264, 4.709567533799314
0.41705112035738284, 4.049199071181887
0.4181944624524098, 3.5410601256497607
0.15734037412039278, 4.715490517332833
0.15968835087636588, 4.4760958992916
0.20705571729982677, 4.857465316658612
0.20701799879772279, 4.3793833024906
0.2490364101415623, 4.4627470856563605
0.2881080635085279, 4.6959535119461595
0.2963919895331157, 4.694715873595872
0.29696483928381995, 4.455586463772558
0.30514032461485874, 3.0798630346892377
0.317007508339325, 3.496416742300122
0.33878051367885054, 1.9692594207852547
0.3547283678496918, 1.6083110361979749
0.35770341470314365, 1.8170299036999502
0.3967208477233349, 1.3629934346232293
0.4174141609401337, 1.1507384575490054
0.15654828557620915, 2.1757682198045707
0.15951626021051646, 2.2948467096500416
0.1985572672945226, 2.139611499428332
0.23466094602718093, 2.253739435872653
0.23642664340692374, 2.133953724112734
0.27844269734438176, 2.1874373813929893
0.2962057544289772, 2.3341859286413076
0.30266033310152174, 1.6459706031424268
0.3162578531100084, 1.4945367107108751
0.32629568948243143, 1.2241127311731645
0.33692287745022925, 0.9237202230106458
0.336312309197421, 0.6847676186659459
0.35761147585426517, 0.6517049941654207
0.3984181803180142, 0.3766840721837852
0.40373884652105757, 0.31612819575902584
