"x","EtOH;g/L","Glycogen;mg/g"
-0.132362,NA,29.7288
-0.0793008,1.34616,NA
7.92366,NA,34.876
8.13941,1.29045,NA
17.9564,1.33536,NA
18.6625,NA,28.21
29.325,1.39041,NA
29.7075,NA,25.2992
41.6731,1.34587,NA
41.904,NA,31.7532
48.8545,1.27775,NA
49.181,NA,36.4492
59.4487,1.33056,NA
59.8977,NA,28.0636
70.8232,1.39692,NA
70.9304,NA,24.2024
83.9369,1.33765,NA
84.1818,NA,32.51
