x,Trehalose;mg/g,Glycogen;mg/g
-0.333586,,12.8764
0.164427,3.65312,
9.65388,,7.36041
9.75088,3.61621,
21.6878,,2.85086
21.9398,3.12506,
38.2133,,4.9664
38.2346,4.14451,
48.047,,15.3863
48.3131,5.11261,
57.7671,,10.1897
57.9351,3.70588,
70.6031,,4.72201
70.6338,3.53483,
87.8395,,9.39529
87.9531,5.01183,
96.2052,,16.4806
96.2347,5.33903,
