x,GlcmM,EtOHmM
11.2823,11.0435,
11.2927,,0.0434783
12.7271,11.0435,
12.7375,,0.130435
14.6474,10.913,
14.6765,,0.304348
16.3396,10.6957,
16.3683,,0.565217
17.5186,10.4783,
17.5276,,0.956522
17.9179,10.3478,
17.9457,,1.08696
18.3363,10.2174,
18.3448,,1.30435
18.6786,10.087,
18.7057,,1.56522
19.116,9.95652,
19.1427,,1.86957
20.0671,9.3913,
20.0734,,2.73913
20.714,8.91304,
20.7191,,3.47826
21.1896,8.52174,
21.1938,,4.13043
21.7796,7.86957,
21.7822,,5.13043
21.97,7.6087,
21.991,,5.47826
22.5029,7,
22.5222,,6.6087
22.8446,,7.47826
22.8456,6.43478,
23.167,,8.34783
23.1692,5.95652,
23.4324,,9.08696
23.4359,5.3913,
23.6835,4.91304,
23.6978,,9.91304
23.9441,,10.7826
23.9692,4.43478,
24.3231,,12.1304
24.3312,3.6087,
24.3988,,12.4348
24.4075,3.34783,
24.664,,13.5217
24.6742,2.73913,
24.7397,,13.8261
24.7505,2.52174,
25.1372,,15.6957
25.1698,1.3913,
25.5699,0.478261,
25.5729,,17.2609
