x,Glc_0.3,Glc_0.4,Glc_0.8,Glc_1.6
305.777,177.817,,,
308.253,,,78.5817,
319.395,,165.439,,
320.633,,,92.7832,
385.007,270.125,,,
392.435,,259.507,,
415.956,,,190.439,
461.761,,,240.15,
501.376,,,,140.987
518.707,,397.983,,
831.912,,,,441.132
