x,Curve2
4750,58.2301
4765.43,86.9027
4796.3,94.8673
4827.16,97.2566
4873.46,97.2566
4904.32,84.9115
4919.75,76.9469
4919.75,76.9469
4935.19,66.5929
4966.05,52.2566
5012.35,71.3717
5027.78,94.8673
5074.07,97.6549
5135.8,96.4602
5166.67,93.6726
5182.1,62.6106
5212.96,62.6106
5243.83,78.1416
5290.12,97.2566
5351.85,96.0619
5367.28,92.8761
5382.72,86.5044
5429.01,68.1858
5444.44,92.0796
5475.31,96.8584
5506.17,98.4513
5567.9,96.8584
5583.33,83.3186
5583.33,83.3186
5614.2,68.5841
5614.2,68.5841
5629.63,78.5398
5645.06,82.5221
5660.49,82.5221
5675.93,90.4867
5691.36,94.469
5706.79,98.4513
5722.22,98.0531
5799.38,92.0796
5814.81,88.0973
5845.68,80.531
5861.11,72.5664
5876.54,70.177
5891.98,74.1593
5907.41,78.1416
5922.84,82.1239
5938.27,90.0885
5953.7,94.0708
5984.57,97.6549
6108.02,96.8584
6138.89,82.1239
6154.32,90.885
