x,DW_cell.pg
0.03438592259209,24.1131
0.0387293907696328,22.3858
0.0517597953022611,23.697
0.159622784769608,20.9527
0.167585659579881,17.6626
0.17337759742064,19.4692
0.182064117887417,18.1515
0.263142236744694,15.4151
0.27762069505223,14.7533
0.291375507703262,12.5301
0.304405288403428,14.17
0.311644517557196,13.2638
0.312368856360881,12.1951
0.401409850028431,14.5522
0.436881656993586,15.528
0.457151359994701,14.4535
0.500586041770129,10.4132
