mu_gen..generations.h,protein..pg.cell,protein.synthesis.rate..amino.acids..s.cell.
0.408956836530368,3.04,1940000
0.332710646668774,2.76,1430000
0.291121815835177,1.98,900000
0.145560907917588,1.62,370000
0.0554517744447956,2.54,210000
0.0277258872223978,1.9,70000
