x,DW_cell pg
0.0496084,24.1131
0.0558747,22.3858
0.0746736,23.697
0.230287,20.9527
0.241775,17.6626
0.250131,19.4692
0.262663,18.1515
0.379634,15.4151
0.400522,14.7533
0.420366,12.5301
0.439164,14.17
0.449608,13.2638
0.450653,12.1951
0.579112,14.5522
0.630287,15.528
0.65953,14.4535
0.722193,10.4132
