x,DO %,survival %,trehalose_axis,trehalose ug/10^8 cells
0.369328,44.7977,,,
0.482178,47.3748,,,
0.579054,49.9508,,,
0.648962,,25.0018,,
0.723414,51.4292,,,
0.883456,52.1749,,,
1.02752,52.9195,,,
1.13041,,30.5417,,
1.18757,53.6651,,,
1.33149,54.0427,,,
1.53945,54.7919,,,
1.67194,,66.5447,,
1.69935,55.1706,,,
1.85924,55.5493,,,
2.01899,55.561,,,
2.04142,,71.7095,,
2.16233,54.4706,,,
2.25715,51.9088,,,
2.33571,48.6118,,,
2.43038,45.683,,,
2.49297,42.3848,,,
2.55555,39.0866,,,
2.61813,35.7885,,,
2.65491,,47.9013,,
2.68071,32.4903,,,
2.75926,29.1933,,,
2.85394,26.2645,,,
2.96488,24.0708,,,
3.12419,22.9816,,,
3.29875,,20.0586,,
3.31575,22.6287,,,
3.41277,25.5716,,,
3.47799,28.8791,,,
3.54321,32.1867,,,
3.5926,35.86,,,
3.64184,39.1664,,,
3.7072,42.8409,,,
3.74927,,28.1651,,
3.77242,46.1484,,,
3.80789,,,,14.9584
3.82167,49.4548,,,
3.88689,52.7623,,,
4.01571,55.3406,,,
4.12138,,39.9355,,
4.1441,56.8179,,,
4.28831,57.9294,,,
4.32099,,,,19.7667
4.4485,59.0421,,,
4.59242,59.4196,,,
4.59359,,62.3555,,
4.75232,59.7983,,,
4.75334,,,,22.3672
4.89653,60.9098,,,
5.05643,61.2885,,,
5.0765,,71.5652,,
5.2002,61.2991,,,
5.20298,,,,28.2718
5.35995,61.3108,,,
5.48731,60.2193,,,
5.58198,57.2904,,,
5.67095,,80.0492,,
5.67652,53.9946,,,
5.75522,51.0646,,,
5.8178,47.7664,,,
5.82439,,,,24.2807
5.88038,44.4683,,,
5.95893,41.1713,,,
6.02151,37.8731,,,
6.0841,34.575,,,
6.17877,31.6461,,,
6.28942,28.7185,,,
6.36402,,,,15.513
6.37194,,35.3301,,
6.40037,26.5248,,,
6.54341,24.7004,,,
6.67062,23.2419,,,
6.75138,,25.4496,,
6.77893,,,,14.4425
6.81396,22.1515,,,
6.9422,23.2618,,,
7.08832,29.1441,,,
7.12173,32.8163,,,
7.17098,36.1226,,,
7.22037,39.796,,,
7.24748,,27.6879,,
7.28558,43.1035,,,
7.33497,46.7769,,,
7.33835,,,,15.2175
7.40019,50.0844,,,
7.44944,53.3908,,,
7.54646,56.3337,,,
7.68554,,44.6008,,
7.69097,58.1792,,,
7.82008,,,,21.4914
7.83533,59.6576,,,
8.07554,61.1432,,,
8.15805,,67.7547,,
8.23529,61.1549,,,
8.2517,,,,22.257
8.39518,61.5336,,,
8.53925,62.2781,,,
8.69914,62.6568,,,
8.74883,,,,27.0641
8.75205,,75.1378,,
8.85889,62.6685,,,
9.00223,61.5781,,,
9.13164,,65.6243,,
9.14542,60.1208,,,
9.24083,59.0268,,,
9.2738,,,,21.5981
9.28743,55.7275,,,
9.34987,52.0624,,,
9.41245,48.7642,,,
9.44293,45.0967,,,
9.48954,41.7974,,,
9.53599,38.1311,,,
9.58377,37.7676,,,
9.66233,34.4706,,,
9.67156,,,,17.5906
9.69105,,26.3993,,
9.77313,31.91,,,
9.88393,29.3493,,,
10.0106,26.4228,,,
10.1183,,,,16.1555
10.1375,24.2303,,,
10.2034,,29.3727,,
10.2807,22.7729,,,
10.4243,22.4165,,,
10.5688,24.2619,,,
10.7291,,25.7416,,
10.8194,,,11.8033,
10.9838,,,23.5584,
11.0689,,,36.4087,
