x,BI %,NADPH au,DO_axis,DO %
0.213538,,,,12.0053
0.264888,,,,13.1316
0.303218,,,,14.2576
0.341466,,,,15.5085
0.379714,,,,16.7595
0.418043,,,,17.8855
0.456291,,,,19.1364
0.507641,,,,20.2627
0.572094,,,,21.2643
0.649566,,,,22.2662
0.753243,,,,23.0188
0.77375,31.5193,,,
0.85692,,,,23.7714
0.960678,,,,24.399
1.07754,,,,24.9019
1.19448,,,,25.2799
1.22727,34.9057,,,
1.32452,,,,25.5331
1.44146,,,,25.911
1.57159,,,,26.0393
1.67567,,,,26.1669
1.7293,23.7932,,,
1.80572,,,,26.4201
1.936,,,,26.2984
2.04049,,,,25.801
2.14515,,,,25.0536
2.19072,15.0548,,,
2.23678,,,,24.3059
2.30262,,,,23.1826
2.36845,,,,22.0592
2.38782,,12.3097,,
2.42127,,,,20.9355
2.46114,,,,19.6865
2.50094,,,,18.5625
2.56742,,,,16.4392
2.62024,,,,15.3155
2.6357,,11.5659,,
2.64392,18.9411,,,
2.69901,,,,14.3175
2.80375,,,,13.4451
2.83117,,11.3208,,
2.90832,,,,12.8227
2.94844,,11.1987,,
3.02591,,,,12.2006
3.10469,,11.2026,,
3.14334,,,,11.8286
3.19054,19.3298,,,
3.26069,,,,11.5815
3.35143,,,,12.2088
3.37763,,11.9594,,
3.4158,,,,13.3354
3.44102,,,,14.586
3.46625,,,,15.8367
3.49156,,,,16.9623
3.49449,,12.4624,,
3.52948,,,,18.7132
3.55471,,,,19.9639
3.58498,,13.4646,,
3.61916,,,,20.9655
3.68353,,,,22.0921
3.71682,30.9679,,,
3.7479,,,,23.2187
3.75344,,14.7188,,
3.83848,,,,24.096
3.8703,,15.2218,,
3.94224,,,,24.7236
4.00034,,15.475,,
4.0591,,,,25.2265
4.06536,,15.6016,,
4.17596,,,,25.7294
4.19557,,15.6049,,
4.21933,39.1055,,,
4.306,,,,25.9827
4.3388,,15.6085,,
4.42302,,,,26.2356
4.50798,,15.7377,,
4.54005,,,,26.4885
4.66545,33.8666,,,
4.67017,,,,26.6168
4.67725,,15.7419,,
4.78728,,,,26.7447
4.80746,,15.7452,,
4.91732,,,,26.9979
4.96371,,15.7491,,
5.03442,,,,27.1259
5.10709,,15.5027,,
5.16471,,,,27.0041
5.23396,20.6308,,,
5.25048,,15.2563,,
5.28173,,,,27.257
5.368,,14.7592,,
5.4121,,,,27.0103
5.51676,,,,26.2629
5.60847,,,,25.3902
5.62906,,13.7657,,
5.68716,,,,24.5172
5.70637,15.0177,,,
5.753,,,,23.3938
5.81883,,,,22.2705
5.85098,,12.8963,,
5.85863,,,,21.1465
5.8985,,,,19.8975
5.9383,,,,18.7735
5.96833,,12.6492,,
5.99119,,,,17.5248
6.04401,,,,16.4011
6.16217,,,,14.9041
6.2167,,11.1554,,
6.25413,,,,13.6564
6.27944,14.782,,,
6.3329,,,,12.6583
6.33421,,10.6584,,
6.42454,,,,11.9106
6.42576,,10.0356,,
6.54221,,,,11.1636
6.65972,,,,10.6665
6.67364,,9.29184,,
6.77487,33.7944,,,
6.77707,,,,10.4194
6.85601,,9.1714,,
6.90744,,,,10.1727
6.98508,,,,10.9246
7.02308,,,,12.5506
7.04831,,,,13.8012
7.06051,,,,15.0515
7.06401,,9.6766,,
7.08574,,,,16.3021
7.09795,,,,17.5524
7.12326,,,,18.6781
7.14848,,,,19.9287
7.19983,,,,21.055
7.23279,,10.4308,,
7.23808,,,,22.306
7.27893,39.557,,,
7.28943,,,,23.4322
7.3538,,,,24.5588
7.38847,,11.3097,,
7.44438,,,,25.4361
7.54431,,11.9386,,
7.56124,,,,25.939
7.67802,,,,26.567
7.69999,,12.8175,,
7.79081,,13.3198,,
7.79252,30.6948,,,
7.79504,,,,26.8199
7.92093,,13.448,,
7.92508,,,,27.0731
8.04194,,,,27.576
8.05122,,13.3263,,
8.15514,,13.7039,,
8.17207,,,,27.7043
8.23554,30.2059,,,
8.27607,,,,27.9569
8.35021,,14.0838,,
8.39309,,,,28.2098
8.49343,,14.0873,,
8.5233,,,,28.2131
8.65342,,,,28.3413
8.69761,20.4674,,,
8.76703,,13.8442,,
8.77061,,,,28.3443
8.90098,,,,28.0975
8.9756,,13.4744,,
9.01849,,,,27.6005
9.09726,,,,26.6024
9.15008,,,,25.4788
9.20289,,,,24.3551
9.22348,,12.7306,,
9.23528,14.6059,,,
9.25571,,,,23.2314
9.30852,,,,22.1077
9.3484,,,,20.8587
9.38819,,,,19.7347
9.42807,,,,18.4857
9.43238,,11.8608,,
9.46786,,,,17.3617
9.52076,,,,16.113
9.59962,,,,14.99
9.66407,15.9916,,,
9.6674,,10.8667,,
9.67839,,,,13.992
9.75717,,,,12.9939
9.81088,,10.4953,,
9.84888,,,,12.1212
9.95353,,,,11.3738
9.95427,,10.2489,,
10.071,,,,10.8768
10.1554,21.3789,,,
10.2014,,,,10.63
10.3188,,,,10.258
10.4358,,,,10.6359
10.5002,,,,11.6375
10.5515,,,,12.8888
10.5762,,,,14.8894
10.627,,,,16.8907
10.6391,,,,18.266
10.6644,,,,19.5166
10.7027,,,,20.6426
10.7064,35.0177,,,
10.7541,,,,21.7689
10.8206,,,19.5205,
11.0031,,,39.2751,
